EESchema Schematic File Version 2
LIBS:rain-tank-rescue
LIBS:power
LIBS:device
LIBS:transistors
LIBS:conn
LIBS:linear
LIBS:regul
LIBS:74xx
LIBS:cmos4000
LIBS:adc-dac
LIBS:memory
LIBS:xilinx
LIBS:microcontrollers
LIBS:dsp
LIBS:microchip
LIBS:analog_switches
LIBS:motorola
LIBS:texas
LIBS:intel
LIBS:audio
LIBS:interface
LIBS:digital-audio
LIBS:philips
LIBS:display
LIBS:cypress
LIBS:siliconi
LIBS:opto
LIBS:atmel
LIBS:contrib
LIBS:valves
LIBS:my-misc-modules
LIBS:my-relays
LIBS:my-power-supplies
LIBS:my-connectors
LIBS:rain-tank-cache
EELAYER 25 0
EELAYER END
$Descr A4 8268 11693 portrait
encoding utf-8
Sheet 1 1
Title ""
Date ""
Rev ""
Comp ""
Comment1 ""
Comment2 ""
Comment3 ""
Comment4 ""
$EndDescr
$Comp
L SW_PUSH SW1
U 1 1 60B5EC4B
P 3250 4900
F 0 "SW1" H 3400 5010 50  0000 C CNN
F 1 "SENSOR" H 3250 4820 50  0000 C CNN
F 2 "Connect:bornier2" H 3250 4900 50  0001 C CNN
F 3 "" H 3250 4900 50  0000 C CNN
	1    3250 4900
	0    1    1    0   
$EndComp
$Comp
L Q_NPN_EBC Q1
U 1 1 60B5F035
P 3800 5700
F 0 "Q1" H 4100 5750 50  0000 R CNN
F 1 "PN2222" H 4300 5650 50  0000 R CNN
F 2 "TO_SOT_Packages_THT:TO-92_Inline_Wide" H 4000 5800 50  0001 C CNN
F 3 "" H 3800 5700 50  0000 C CNN
	1    3800 5700
	1    0    0    -1  
$EndComp
$Comp
L GND #PWR9
U 1 1 60B5F0EC
P 3900 6000
F 0 "#PWR9" H 3900 5750 50  0001 C CNN
F 1 "GND" H 3900 5850 50  0000 C CNN
F 2 "" H 3900 6000 50  0000 C CNN
F 3 "" H 3900 6000 50  0000 C CNN
	1    3900 6000
	1    0    0    -1  
$EndComp
$Comp
L R R1
U 1 1 60B5F144
P 3250 5450
F 0 "R1" V 3330 5450 50  0000 C CNN
F 1 "1K" V 3250 5450 50  0000 C CNN
F 2 "Resistors_ThroughHole:Resistor_Horizontal_RM10mm" V 3180 5450 50  0001 C CNN
F 3 "" H 3250 5450 50  0000 C CNN
	1    3250 5450
	1    0    0    -1  
$EndComp
$Comp
L RELAY_SPDT K1
U 1 1 60B5F21A
P 4600 5050
F 0 "K1" H 4600 5150 50  0000 C CNN
F 1 "SRD-5VDC-SL-C" H 4600 4450 50  0000 C CNN
F 2 "myRelays:SRD-5VDC-SL-C" H 4600 5050 50  0001 C CNN
F 3 "" H 4600 5050 50  0000 C CNN
	1    4600 5050
	1    0    0    -1  
$EndComp
$Comp
L D D1
U 1 1 60B5F27C
P 3900 5150
F 0 "D1" H 3900 5250 50  0000 C CNN
F 1 "1N4148" H 3900 5050 50  0000 C CNN
F 2 "Diodes_ThroughHole:Diode_DO-35_SOD27_Horizontal_RM10" H 3900 5150 50  0001 C CNN
F 3 "" H 3900 5150 50  0000 C CNN
	1    3900 5150
	0    1    1    0   
$EndComp
$Comp
L +5V #PWR8
U 1 1 60B5F318
P 3900 4800
F 0 "#PWR8" H 3900 4650 50  0001 C CNN
F 1 "+5V" H 3900 4940 50  0000 C CNN
F 2 "" H 3900 4800 50  0000 C CNN
F 3 "" H 3900 4800 50  0000 C CNN
	1    3900 4800
	1    0    0    -1  
$EndComp
$Comp
L CONN_01X02 P1
U 1 1 60B5F344
P 5700 5150
F 0 "P1" H 5700 5300 50  0000 C CNN
F 1 "OUT" V 5800 5150 50  0000 C CNN
F 2 "myConnectors:Bornier2-7.62" H 5700 5150 50  0001 C CNN
F 3 "" H 5700 5150 50  0000 C CNN
	1    5700 5150
	1    0    0    1   
$EndComp
$Comp
L CONN_01X02 P2
U 1 1 60B5F47A
P 2400 5150
F 0 "P2" H 2400 5300 50  0000 C CNN
F 1 "5V" V 2500 5150 50  0000 C CNN
F 2 "Connect:bornier2" H 2400 5150 50  0001 C CNN
F 3 "" H 2400 5150 50  0000 C CNN
	1    2400 5150
	-1   0    0    1   
$EndComp
$Comp
L +5V #PWR5
U 1 1 60B5F17E
P 3250 4500
F 0 "#PWR5" H 3250 4350 50  0001 C CNN
F 1 "+5V" H 3250 4640 50  0000 C CNN
F 2 "" H 3250 4500 50  0000 C CNN
F 3 "" H 3250 4500 50  0000 C CNN
	1    3250 4500
	1    0    0    -1  
$EndComp
$Comp
L +5V #PWR1
U 1 1 60B5F52F
P 2700 5000
F 0 "#PWR1" H 2700 4850 50  0001 C CNN
F 1 "+5V" H 2700 5140 50  0000 C CNN
F 2 "" H 2700 5000 50  0000 C CNN
F 3 "" H 2700 5000 50  0000 C CNN
	1    2700 5000
	1    0    0    -1  
$EndComp
$Comp
L GND #PWR2
U 1 1 60B5F57D
P 2700 5300
F 0 "#PWR2" H 2700 5050 50  0001 C CNN
F 1 "GND" H 2700 5150 50  0000 C CNN
F 2 "" H 2700 5300 50  0000 C CNN
F 3 "" H 2700 5300 50  0000 C CNN
	1    2700 5300
	1    0    0    -1  
$EndComp
$Comp
L Led_Small D2
U 1 1 60B5F5DD
P 2900 5900
F 0 "D2" H 2850 6025 50  0000 L CNN
F 1 "GREEN" H 2800 5800 50  0000 L CNN
F 2 "LEDs:LED-5MM" V 2900 5900 50  0001 C CNN
F 3 "" V 2900 5900 50  0000 C CNN
	1    2900 5900
	0    -1   -1   0   
$EndComp
$Comp
L +5V #PWR3
U 1 1 60B5F624
P 2900 5300
F 0 "#PWR3" H 2900 5150 50  0001 C CNN
F 1 "+5V" H 2900 5440 50  0000 C CNN
F 2 "" H 2900 5300 50  0000 C CNN
F 3 "" H 2900 5300 50  0000 C CNN
	1    2900 5300
	1    0    0    -1  
$EndComp
$Comp
L GND #PWR4
U 1 1 60B5F647
P 2900 6100
F 0 "#PWR4" H 2900 5850 50  0001 C CNN
F 1 "GND" H 2900 5950 50  0000 C CNN
F 2 "" H 2900 6100 50  0000 C CNN
F 3 "" H 2900 6100 50  0000 C CNN
	1    2900 6100
	1    0    0    -1  
$EndComp
$Comp
L R R2
U 1 1 60B5F718
P 2900 5550
F 0 "R2" V 2980 5550 50  0000 C CNN
F 1 "1K" V 2900 5550 50  0000 C CNN
F 2 "Resistors_ThroughHole:Resistor_Horizontal_RM10mm" V 2830 5550 50  0001 C CNN
F 3 "" H 2900 5550 50  0000 C CNN
	1    2900 5550
	1    0    0    -1  
$EndComp
$Comp
L R R3
U 1 1 60B5F7C5
P 3650 4850
F 0 "R3" V 3730 4850 50  0000 C CNN
F 1 "1K" V 3650 4850 50  0000 C CNN
F 2 "Resistors_ThroughHole:Resistor_Horizontal_RM10mm" V 3580 4850 50  0001 C CNN
F 3 "" H 3650 4850 50  0000 C CNN
	1    3650 4850
	1    0    0    -1  
$EndComp
$Comp
L Led_Small D3
U 1 1 60B5F82F
P 3650 5200
F 0 "D3" H 3500 5250 50  0000 L CNN
F 1 "RED" H 3700 5250 50  0000 L CNN
F 2 "LEDs:LED-5MM" V 3650 5200 50  0001 C CNN
F 3 "" V 3650 5200 50  0000 C CNN
	1    3650 5200
	0    -1   -1   0   
$EndComp
$Comp
L +5V #PWR7
U 1 1 60B5F8F1
P 3650 4600
F 0 "#PWR7" H 3650 4450 50  0001 C CNN
F 1 "+5V" H 3650 4740 50  0000 C CNN
F 2 "" H 3650 4600 50  0000 C CNN
F 3 "" H 3650 4600 50  0000 C CNN
	1    3650 4600
	1    0    0    -1  
$EndComp
$Comp
L CONN_01X02 P3
U 1 1 60B5FDC1
P 5700 5550
F 0 "P3" H 5700 5700 50  0000 C CNN
F 1 "230V" V 5800 5550 50  0000 C CNN
F 2 "myConnectors:Bornier2-7.62" H 5700 5550 50  0001 C CNN
F 3 "" H 5700 5550 50  0000 C CNN
	1    5700 5550
	1    0    0    1   
$EndComp
$Comp
L VR VR1
U 1 1 60B5FF22
P 5250 5150
F 0 "VR1" V 5310 5104 50  0000 C TNN
F 1 "VR" V 5250 5150 50  0000 C CNN
F 2 "Varistors:RV_Disc_D12_W3.9_P7.5" H 5250 5150 50  0001 C CNN
F 3 "" H 5250 5150 50  0000 C CNN
	1    5250 5150
	1    0    0    -1  
$EndComp
Wire Wire Line
	3250 5600 3250 5700
Wire Wire Line
	3900 5900 3900 6000
Wire Wire Line
	3650 5400 4200 5400
Wire Wire Line
	3250 5200 3250 5300
Wire Wire Line
	3900 5300 3900 5500
Connection ~ 3900 5400
Wire Wire Line
	4200 5300 4050 5300
Wire Wire Line
	4050 5300 4050 4900
Wire Wire Line
	4050 4900 3900 4900
Wire Wire Line
	3900 4800 3900 5000
Connection ~ 3900 4900
Wire Wire Line
	5500 5100 5400 5100
Wire Wire Line
	5400 4800 5400 5100
Wire Wire Line
	4100 4800 5400 4800
Wire Wire Line
	4100 4800 4100 5100
Wire Wire Line
	4100 5100 4200 5100
Wire Wire Line
	2700 5000 2700 5100
Wire Wire Line
	2700 5100 2600 5100
Wire Wire Line
	2700 5300 2700 5200
Wire Wire Line
	2700 5200 2600 5200
Wire Wire Line
	2900 5800 2900 5700
Wire Wire Line
	2900 6000 2900 6100
Wire Wire Line
	2900 5400 2900 5300
Wire Wire Line
	3650 5000 3650 5100
Wire Wire Line
	3650 4600 3650 4700
Wire Wire Line
	3650 5300 3650 5400
Wire Wire Line
	5000 5200 5100 5200
Wire Wire Line
	5100 5200 5100 5600
Wire Wire Line
	5100 5600 5500 5600
Wire Wire Line
	5500 5200 5400 5200
Wire Wire Line
	5400 5200 5400 5500
Wire Wire Line
	5250 5500 5500 5500
Wire Wire Line
	5250 4900 5250 4800
Connection ~ 5250 4800
Wire Wire Line
	5250 5400 5250 5500
Connection ~ 5400 5500
Wire Wire Line
	3250 5700 3600 5700
Wire Wire Line
	3250 4500 3250 4600
$EndSCHEMATC
