EESchema Schematic File Version 4
EELAYER 30 0
EELAYER END
$Descr A4 8268 11693 portrait
encoding utf-8
Sheet 1 1
Title ""
Date ""
Rev ""
Comp ""
Comment1 ""
Comment2 ""
Comment3 ""
Comment4 ""
$EndDescr
$Comp
L my-relays:RELAY_SPDT K1
U 1 1 61A62575
P 2400 4250
F 0 "K1" H 2200 4350 50  0000 C CNN
F 1 "SRD-05VDC-SL-C" H 2400 3650 50  0000 C CNN
F 2 "myRelays:Relay_SPDT_Finder-36.11" H 2400 4250 50  0001 C CNN
F 3 "" H 2400 4250 50  0000 C CNN
	1    2400 4250
	-1   0    0    1   
$EndComp
$Comp
L my-relays:RELAY_SPDT K2
U 1 1 61A6257C
P 2400 5350
F 0 "K2" H 2200 5450 50  0000 C CNN
F 1 "SRD-05VDC-SL-C" H 2400 4750 50  0000 C CNN
F 2 "myRelays:Relay_SPDT_Finder-36.11" H 2400 5350 50  0001 C CNN
F 3 "" H 2400 5350 50  0000 C CNN
	1    2400 5350
	-1   0    0    1   
$EndComp
$Comp
L level-control-rescue:PN2222A Q2
U 1 1 61A62583
P 3600 5500
F 0 "Q2" H 3800 5575 50  0000 L CNN
F 1 "PN2222A" H 3800 5500 50  0000 L CNN
F 2 "TO_SOT_Packages_THT:TO-92_Inline_Wide" H 3800 5425 50  0001 L CIN
F 3 "" H 3600 5500 50  0000 L CNN
	1    3600 5500
	-1   0    0    -1  
$EndComp
$Comp
L level-control-rescue:R R4
U 1 1 61A6258A
P 4050 5500
F 0 "R4" V 4130 5500 50  0000 C CNN
F 1 "1K" V 4050 5500 50  0000 C CNN
F 2 "Resistors_THT:R_Axial_DIN0207_L6.3mm_D2.5mm_P10.16mm_Horizontal" V 3980 5500 50  0001 C CNN
F 3 "" H 4050 5500 50  0000 C CNN
	1    4050 5500
	0    1    1    0   
$EndComp
$Comp
L power:GND #PWR01
U 1 1 61A62591
P 3500 5800
F 0 "#PWR01" H 3500 5550 50  0001 C CNN
F 1 "GND" H 3500 5650 50  0000 C CNN
F 2 "" H 3500 5800 50  0000 C CNN
F 3 "" H 3500 5800 50  0000 C CNN
	1    3500 5800
	1    0    0    -1  
$EndComp
$Comp
L level-control-rescue:PN2222A Q1
U 1 1 61A62597
P 3600 4400
F 0 "Q1" H 3800 4475 50  0000 L CNN
F 1 "PN2222A" H 3800 4400 50  0000 L CNN
F 2 "TO_SOT_Packages_THT:TO-92_Inline_Wide" H 3800 4325 50  0001 L CIN
F 3 "" H 3600 4400 50  0000 L CNN
	1    3600 4400
	-1   0    0    -1  
$EndComp
$Comp
L level-control-rescue:R R3
U 1 1 61A6259E
P 4050 4400
F 0 "R3" V 4130 4400 50  0000 C CNN
F 1 "1K" V 4050 4400 50  0000 C CNN
F 2 "Resistors_THT:R_Axial_DIN0207_L6.3mm_D2.5mm_P10.16mm_Horizontal" V 3980 4400 50  0001 C CNN
F 3 "" H 4050 4400 50  0000 C CNN
	1    4050 4400
	0    1    1    0   
$EndComp
$Comp
L power:GND #PWR02
U 1 1 61A625A5
P 3500 4700
F 0 "#PWR02" H 3500 4450 50  0001 C CNN
F 1 "GND" H 3500 4550 50  0000 C CNN
F 2 "" H 3500 4700 50  0000 C CNN
F 3 "" H 3500 4700 50  0000 C CNN
	1    3500 4700
	1    0    0    -1  
$EndComp
$Comp
L power:+5V #PWR03
U 1 1 61A625AB
P 3000 3700
F 0 "#PWR03" H 3000 3550 50  0001 C CNN
F 1 "+5V" H 3000 3840 50  0000 C CNN
F 2 "" H 3000 3700 50  0000 C CNN
F 3 "" H 3000 3700 50  0000 C CNN
	1    3000 3700
	1    0    0    -1  
$EndComp
$Comp
L level-control-rescue:D D1
U 1 1 61A625B1
P 3250 3900
F 0 "D1" H 3250 4000 50  0000 C CNN
F 1 "1N4148" H 3250 3750 50  0000 C CNN
F 2 "Diodes_THT:D_DO-35_SOD27_P7.62mm_Horizontal" H 3250 3900 50  0001 C CNN
F 3 "" H 3250 3900 50  0000 C CNN
	1    3250 3900
	1    0    0    -1  
$EndComp
$Comp
L level-control-rescue:D D2
U 1 1 61A625B8
P 3250 5000
F 0 "D2" H 3250 5100 50  0000 C CNN
F 1 "1N4148" H 3250 4850 50  0000 C CNN
F 2 "Diodes_THT:D_DO-35_SOD27_P7.62mm_Horizontal" H 3250 5000 50  0001 C CNN
F 3 "" H 3250 5000 50  0000 C CNN
	1    3250 5000
	1    0    0    -1  
$EndComp
$Comp
L my-power-supplies:IRM-XX-XX U1
U 1 1 61A625BF
P 2950 6650
F 0 "U1" H 2950 6900 60  0000 C CNN
F 1 "HLK-PM01" H 2700 6400 60  0000 L CNN
F 2 "myPowerSupplies:HLK-PM01" H 2950 6650 60  0001 C CNN
F 3 "" H 2950 6650 60  0000 C CNN
	1    2950 6650
	1    0    0    -1  
$EndComp
$Comp
L level-control-rescue:CONN_01X02 P2
U 1 1 61A625C6
P 1000 6650
F 0 "P2" H 1000 6800 50  0000 C CNN
F 1 "230V" V 1100 6650 50  0000 C CNN
F 2 "myConnectors:Bornier2-7.62" H 1000 6650 50  0001 C CNN
F 3 "" H 1000 6650 50  0000 C CNN
	1    1000 6650
	-1   0    0    -1  
$EndComp
$Comp
L power:+5V #PWR04
U 1 1 61A625CD
P 3700 6450
F 0 "#PWR04" H 3700 6300 50  0001 C CNN
F 1 "+5V" H 3700 6590 50  0000 C CNN
F 2 "" H 3700 6450 50  0000 C CNN
F 3 "" H 3700 6450 50  0000 C CNN
	1    3700 6450
	1    0    0    -1  
$EndComp
$Comp
L power:GND #PWR05
U 1 1 61A625D3
P 3700 6850
F 0 "#PWR05" H 3700 6600 50  0001 C CNN
F 1 "GND" H 3700 6700 50  0000 C CNN
F 2 "" H 3700 6850 50  0000 C CNN
F 3 "" H 3700 6850 50  0000 C CNN
	1    3700 6850
	1    0    0    -1  
$EndComp
$Comp
L level-control-rescue:CONN_01X03 P1
U 1 1 61A625D9
P 900 3850
F 0 "P1" H 900 4050 50  0000 C CNN
F 1 "VALVE" V 1000 3850 50  0000 C CNN
F 2 "myConnectors:Bornier3-7.62" H 900 3850 50  0001 C CNN
F 3 "" H 900 3850 50  0000 C CNN
	1    900  3850
	-1   0    0    1   
$EndComp
$Comp
L power:+5V #PWR06
U 1 1 61A62FFB
P 7250 7300
F 0 "#PWR06" H 7250 7150 50  0001 C CNN
F 1 "+5V" H 7250 7440 50  0000 C CNN
F 2 "" H 7250 7300 50  0000 C CNN
F 3 "" H 7250 7300 50  0000 C CNN
	1    7250 7300
	1    0    0    -1  
$EndComp
$Comp
L level-control-rescue:C C3
U 1 1 61A63001
P 7250 7650
F 0 "C3" H 7275 7750 50  0000 L CNN
F 1 "100nF" H 7275 7550 50  0000 L CNN
F 2 "myRelays:Relay_SPDT_Omron-G5RL-K1-E" H 7288 7500 50  0001 C CNN
F 3 "" H 7250 7650 50  0000 C CNN
	1    7250 7650
	1    0    0    -1  
$EndComp
$Comp
L power:GND #PWR07
U 1 1 61A63008
P 7250 8000
F 0 "#PWR07" H 7250 7750 50  0001 C CNN
F 1 "GND" H 7250 7850 50  0000 C CNN
F 2 "" H 7250 8000 50  0000 C CNN
F 3 "" H 7250 8000 50  0000 C CNN
	1    7250 8000
	1    0    0    -1  
$EndComp
$Comp
L power:GND #PWR08
U 1 1 61A63044
P 5050 8700
F 0 "#PWR08" H 5050 8450 50  0001 C CNN
F 1 "GND" H 5050 8550 50  0000 C CNN
F 2 "" H 5050 8700 50  0000 C CNN
F 3 "" H 5050 8700 50  0000 C CNN
	1    5050 8700
	-1   0    0    -1  
$EndComp
$Comp
L level-control-rescue:Varistor RV1
U 1 1 61A63C5E
P 1200 4350
F 0 "RV1" V 1325 4350 50  0000 C CNN
F 1 "SIOV-S10K275" V 1075 4350 50  0000 C CNN
F 2 "Varistors:RV_Disc_D12_W3.9_P7.5" V 1130 4350 50  0001 C CNN
F 3 "" H 1200 4350 50  0001 C CNN
	1    1200 4350
	1    0    0    -1  
$EndComp
$Comp
L level-control-rescue:Varistor RV2
U 1 1 61A63CCA
P 1550 4350
F 0 "RV2" V 1675 4350 50  0000 C CNN
F 1 "SIOV-S10K275" V 1425 4350 50  0000 C CNN
F 2 "Varistors:RV_Disc_D12_W3.9_P7.5" V 1480 4350 50  0001 C CNN
F 3 "" H 1550 4350 50  0001 C CNN
	1    1550 4350
	1    0    0    -1  
$EndComp
$Comp
L my-microcontrollers:WEMOS-D1-MINI U2
U 1 1 61A63409
P 6100 6700
F 0 "U2" H 6050 7550 60  0000 C CNN
F 1 "WEMOS-D1-MINI" H 6100 5800 60  0000 C CNN
F 2 "myMicroControllers:WEMOS_D1_mini" H 6100 6700 60  0001 C CNN
F 3 "" H 6100 6700 60  0000 C CNN
	1    6100 6700
	1    0    0    -1  
$EndComp
$Comp
L power:+3.3V #PWR09
U 1 1 61A63787
P 4550 7050
F 0 "#PWR09" H 4550 6900 50  0001 C CNN
F 1 "+3.3V" H 4550 7190 50  0000 C CNN
F 2 "" H 4550 7050 50  0001 C CNN
F 3 "" H 4550 7050 50  0001 C CNN
	1    4550 7050
	1    0    0    -1  
$EndComp
$Comp
L power:+3.3V #PWR010
U 1 1 61A63846
P 5050 8200
F 0 "#PWR010" H 5050 8050 50  0001 C CNN
F 1 "+3.3V" H 5050 8340 50  0000 C CNN
F 2 "" H 5050 8200 50  0001 C CNN
F 3 "" H 5050 8200 50  0001 C CNN
	1    5050 8200
	1    0    0    -1  
$EndComp
Wire Wire Line
	3500 5800 3500 5700
Wire Wire Line
	3800 5500 3900 5500
Wire Wire Line
	3500 4700 3500 4600
Wire Wire Line
	3800 4400 3900 4400
Wire Wire Line
	3500 3900 3500 4000
Wire Wire Line
	3500 4000 2800 4000
Wire Wire Line
	2800 5100 3500 5100
Wire Wire Line
	3500 5000 3500 5100
Wire Wire Line
	3000 3700 3000 3900
Wire Wire Line
	2800 5000 3000 5000
Wire Wire Line
	2800 3900 3000 3900
Connection ~ 3000 3900
Wire Wire Line
	3400 3900 3500 3900
Connection ~ 3500 4000
Connection ~ 3000 5000
Wire Wire Line
	3400 5000 3500 5000
Connection ~ 3500 5100
Wire Wire Line
	1200 6600 1800 6600
Wire Wire Line
	1200 6700 1700 6700
Wire Wire Line
	3700 6450 3700 6550
Wire Wire Line
	3700 6550 3600 6550
Wire Wire Line
	3700 6850 3700 6750
Wire Wire Line
	3700 6750 3600 6750
Wire Wire Line
	2800 4200 2900 4200
Wire Wire Line
	2900 4200 2900 5300
Wire Wire Line
	2900 5300 2800 5300
Wire Wire Line
	1700 2100 1700 2600
Connection ~ 2900 5300
Connection ~ 1700 6700
Wire Wire Line
	1100 3850 1700 3850
Wire Wire Line
	2900 5850 1800 5850
Wire Wire Line
	1800 3100 1800 5850
Connection ~ 1800 6600
Wire Wire Line
	2000 4100 1900 4100
Wire Wire Line
	1900 4100 1900 3750
Wire Wire Line
	1900 3750 1550 3750
Wire Wire Line
	1100 3950 1200 3950
Wire Wire Line
	1850 3950 1850 5200
Wire Wire Line
	1850 5200 2000 5200
Connection ~ 1200 3950
Connection ~ 1550 3750
Wire Wire Line
	7250 7300 7250 7400
Wire Wire Line
	7250 7400 6850 7400
Wire Wire Line
	7250 7800 7250 7900
Connection ~ 7250 7400
Wire Wire Line
	5050 8700 5050 8600
Wire Wire Line
	5050 8600 5150 8600
Wire Wire Line
	4850 6800 5250 6800
Wire Wire Line
	7300 5500 7300 6400
Wire Wire Line
	7300 6400 6850 6400
Wire Wire Line
	7350 6600 6850 6600
Wire Wire Line
	7350 4400 7350 6600
Wire Wire Line
	4200 4400 7350 4400
Wire Wire Line
	7300 5500 4200 5500
Wire Wire Line
	1200 4200 1200 3950
Wire Wire Line
	1550 4200 1550 3750
Wire Wire Line
	1550 4500 1550 4700
Wire Wire Line
	1200 4700 1550 4700
Connection ~ 1700 4700
Wire Wire Line
	1200 4700 1200 4500
Connection ~ 1550 4700
Wire Wire Line
	6850 7200 7000 7200
Wire Wire Line
	7000 7200 7000 7900
Wire Wire Line
	7000 7900 7250 7900
Connection ~ 7250 7900
Wire Wire Line
	4550 7050 4550 7400
Wire Wire Line
	4550 7400 5250 7400
Wire Wire Line
	5150 8300 5050 8300
Wire Wire Line
	5050 8300 5050 8200
Wire Wire Line
	5250 7000 4900 7000
Wire Wire Line
	4900 7000 4900 7900
$Comp
L level-control-rescue:CONN_01X02 P3
U 1 1 61B4C888
P 1000 7200
F 0 "P3" H 1000 7350 50  0000 C CNN
F 1 "SENSOR" V 1100 7200 50  0000 C CNN
F 2 "myConnectors:Bornier2-7.62" H 1000 7200 50  0001 C CNN
F 3 "" H 1000 7200 50  0000 C CNN
	1    1000 7200
	-1   0    0    -1  
$EndComp
$Comp
L power:GND #PWR011
U 1 1 61B4C985
P 1300 7350
F 0 "#PWR011" H 1300 7100 50  0001 C CNN
F 1 "GND" H 1300 7200 50  0000 C CNN
F 2 "" H 1300 7350 50  0000 C CNN
F 3 "" H 1300 7350 50  0000 C CNN
	1    1300 7350
	-1   0    0    -1  
$EndComp
Wire Wire Line
	1200 7250 1300 7250
Wire Wire Line
	1300 7250 1300 7350
Wire Wire Line
	1200 7150 4800 7150
Wire Wire Line
	4800 7150 4800 6600
Wire Wire Line
	4800 6600 5250 6600
$Comp
L my-misc-modules:JSNSR04T U3
U 1 1 61B71EE0
P 5350 8600
F 0 "U3" H 5850 8390 60  0000 C CNN
F 1 "JSNSR04T" H 5860 8500 60  0000 C CNN
F 2 "myModules:JSNSR04T" H 5350 8600 60  0001 C CNN
F 3 "" H 5350 8600 60  0001 C CNN
	1    5350 8600
	1    0    0    1   
$EndComp
Wire Wire Line
	4850 6800 4850 8000
Wire Wire Line
	4850 8500 5150 8500
Wire Wire Line
	4900 8400 5150 8400
$Comp
L level-control-rescue:PN2222A Q4
U 1 1 61BEF93F
P 3600 3100
F 0 "Q4" H 3800 3175 50  0000 L CNN
F 1 "PN2222A" H 3800 3100 50  0000 L CNN
F 2 "TO_SOT_Packages_THT:TO-92_Inline_Wide" H 3800 3025 50  0001 L CIN
F 3 "" H 3600 3100 50  0000 L CNN
	1    3600 3100
	-1   0    0    -1  
$EndComp
$Comp
L level-control-rescue:PN2222A Q3
U 1 1 61BEF9FE
P 3600 2200
F 0 "Q3" H 3800 2275 50  0000 L CNN
F 1 "PN2222A" H 3800 2200 50  0000 L CNN
F 2 "TO_SOT_Packages_THT:TO-92_Inline_Wide" H 3800 2125 50  0001 L CIN
F 3 "" H 3600 2200 50  0000 L CNN
	1    3600 2200
	-1   0    0    -1  
$EndComp
$Comp
L level-control-rescue:R R2
U 1 1 61BEFA62
P 4050 3100
F 0 "R2" V 4130 3100 50  0000 C CNN
F 1 "1K" V 4050 3100 50  0000 C CNN
F 2 "Resistors_THT:R_Axial_DIN0207_L6.3mm_D2.5mm_P10.16mm_Horizontal" V 3980 3100 50  0001 C CNN
F 3 "" H 4050 3100 50  0000 C CNN
	1    4050 3100
	0    1    1    0   
$EndComp
$Comp
L level-control-rescue:R R1
U 1 1 61BEFADD
P 4050 2200
F 0 "R1" V 4130 2200 50  0000 C CNN
F 1 "1K" V 4050 2200 50  0000 C CNN
F 2 "Resistors_THT:R_Axial_DIN0207_L6.3mm_D2.5mm_P10.16mm_Horizontal" V 3980 2200 50  0001 C CNN
F 3 "" H 4050 2200 50  0000 C CNN
	1    4050 2200
	0    1    1    0   
$EndComp
Wire Wire Line
	3900 2200 3800 2200
Wire Wire Line
	3800 3100 3900 3100
Wire Wire Line
	4200 3100 4800 3100
Wire Wire Line
	4800 3100 4800 6400
Wire Wire Line
	4800 6400 5250 6400
Connection ~ 1800 5850
$Comp
L level-control-rescue:CONN_01X02 P4
U 1 1 61BEFDC9
P 900 2050
F 0 "P4" H 900 2200 50  0000 C CNN
F 1 "PUMP" V 1000 2050 50  0000 C CNN
F 2 "myConnectors:Bornier2-7.62" H 900 2050 50  0001 C CNN
F 3 "" H 900 2050 50  0000 C CNN
	1    900  2050
	-1   0    0    1   
$EndComp
Wire Wire Line
	1100 2000 1200 2000
Wire Wire Line
	1100 2100 1700 2100
Connection ~ 1700 3850
$Comp
L power:GND #PWR012
U 1 1 61BF00F0
P 3500 3500
F 0 "#PWR012" H 3500 3250 50  0001 C CNN
F 1 "GND" H 3500 3350 50  0000 C CNN
F 2 "" H 3500 3500 50  0000 C CNN
F 3 "" H 3500 3500 50  0000 C CNN
	1    3500 3500
	1    0    0    -1  
$EndComp
Wire Wire Line
	3500 3500 3500 3300
$Comp
L power:GND #PWR013
U 1 1 61BF02B5
P 3500 2500
F 0 "#PWR013" H 3500 2250 50  0001 C CNN
F 1 "GND" H 3500 2350 50  0000 C CNN
F 2 "" H 3500 2500 50  0000 C CNN
F 3 "" H 3500 2500 50  0000 C CNN
	1    3500 2500
	1    0    0    -1  
$EndComp
Wire Wire Line
	3500 2500 3500 2400
$Comp
L level-control-rescue:D D4
U 1 1 61BF038B
P 3250 2700
F 0 "D4" H 3250 2800 50  0000 C CNN
F 1 "1N4148" H 3250 2550 50  0000 C CNN
F 2 "Diodes_THT:D_DO-35_SOD27_P7.62mm_Horizontal" H 3250 2700 50  0001 C CNN
F 3 "" H 3250 2700 50  0000 C CNN
	1    3250 2700
	1    0    0    -1  
$EndComp
Wire Wire Line
	3400 2700 3500 2700
Wire Wire Line
	3500 2700 3500 2800
Wire Wire Line
	3500 2800 2800 2800
Connection ~ 3500 2800
$Comp
L power:+5V #PWR014
U 1 1 61BF0604
P 3000 1700
F 0 "#PWR014" H 3000 1550 50  0001 C CNN
F 1 "+5V" H 3000 1840 50  0000 C CNN
F 2 "" H 3000 1700 50  0000 C CNN
F 3 "" H 3000 1700 50  0000 C CNN
	1    3000 1700
	1    0    0    -1  
$EndComp
Wire Wire Line
	3000 1700 3000 1800
Wire Wire Line
	3000 2500 2800 2500
Wire Wire Line
	3000 2700 3100 2700
Connection ~ 3000 2500
$Comp
L level-control-rescue:D D3
U 1 1 61BF0752
P 3250 1800
F 0 "D3" H 3250 1900 50  0000 C CNN
F 1 "1N4148" H 3250 1650 50  0000 C CNN
F 2 "Diodes_THT:D_DO-35_SOD27_P7.62mm_Horizontal" H 3250 1800 50  0001 C CNN
F 3 "" H 3250 1800 50  0000 C CNN
	1    3250 1800
	1    0    0    -1  
$EndComp
Wire Wire Line
	3000 1800 3100 1800
Connection ~ 3000 1800
Wire Wire Line
	3400 1800 3500 1800
Wire Wire Line
	3500 1800 3500 1900
Wire Wire Line
	3500 1900 2950 1900
Wire Wire Line
	2950 1900 2950 2400
Wire Wire Line
	2950 2400 2800 2400
Connection ~ 3500 1900
Wire Wire Line
	2900 3100 1800 3100
Wire Wire Line
	2900 1900 2900 2200
Wire Wire Line
	2900 2200 2800 2200
$Comp
L level-control-rescue:Varistor RV3
U 1 1 61BF1270
P 1200 2350
F 0 "RV3" V 1325 2350 50  0000 C CNN
F 1 "SIOV-S10K275" V 1075 2350 50  0000 C CNN
F 2 "Varistors:RV_Disc_D12_W3.9_P7.5" V 1130 2350 50  0001 C CNN
F 3 "" H 1200 2350 50  0001 C CNN
	1    1200 2350
	1    0    0    -1  
$EndComp
Wire Wire Line
	1200 2200 1200 2000
Connection ~ 1200 2000
Wire Wire Line
	1200 2500 1200 2600
Wire Wire Line
	1200 2600 1700 2600
Connection ~ 1700 2600
Wire Wire Line
	2000 2300 1900 2300
Wire Wire Line
	1900 2300 1900 2000
Connection ~ 1900 2000
Wire Wire Line
	2900 1900 2800 1900
Connection ~ 2900 2200
Wire Wire Line
	4200 2200 4750 2200
Wire Wire Line
	4750 2200 4750 7200
Wire Wire Line
	4750 7200 5250 7200
$Comp
L level-control-rescue:Conn_01x04 J1
U 1 1 61C07E03
P 1000 8000
F 0 "J1" H 1000 8200 50  0000 C CNN
F 1 "HC-SR04" V 1100 7950 50  0000 C CNN
F 2 "Pin_Headers:Pin_Header_Straight_1x04_Pitch2.54mm" H 1000 8000 50  0001 C CNN
F 3 "" H 1000 8000 50  0001 C CNN
	1    1000 8000
	-1   0    0    1   
$EndComp
$Comp
L power:GND #PWR016
U 1 1 61C0846B
P 1300 8200
F 0 "#PWR016" H 1300 7950 50  0001 C CNN
F 1 "GND" H 1300 8050 50  0000 C CNN
F 2 "" H 1300 8200 50  0000 C CNN
F 3 "" H 1300 8200 50  0000 C CNN
	1    1300 8200
	-1   0    0    -1  
$EndComp
Wire Wire Line
	1200 8100 1300 8100
Wire Wire Line
	1300 8100 1300 8200
Connection ~ 4850 8000
Wire Wire Line
	4900 7900 1200 7900
Connection ~ 4900 7900
$Comp
L power:+5V #PWR017
U 1 1 61C086C8
P 1500 7700
F 0 "#PWR017" H 1500 7550 50  0001 C CNN
F 1 "+5V" H 1500 7840 50  0000 C CNN
F 2 "" H 1500 7700 50  0000 C CNN
F 3 "" H 1500 7700 50  0000 C CNN
	1    1500 7700
	1    0    0    -1  
$EndComp
Wire Wire Line
	1500 7700 1500 7800
Wire Wire Line
	1500 7800 1200 7800
$Comp
L level-control-rescue:R R5
U 1 1 61C08849
P 3950 8000
F 0 "R5" V 4030 8000 50  0000 C CNN
F 1 "10K" V 3950 8000 50  0000 C CNN
F 2 "Resistors_THT:R_Axial_DIN0207_L6.3mm_D2.5mm_P10.16mm_Horizontal" V 3880 8000 50  0001 C CNN
F 3 "" H 3950 8000 50  0000 C CNN
	1    3950 8000
	0    1    1    0   
$EndComp
Wire Wire Line
	4100 8000 4200 8000
Wire Wire Line
	3800 8000 1200 8000
$Comp
L level-control-rescue:R R6
U 1 1 61C08B9A
P 4200 8250
F 0 "R6" V 4280 8250 50  0000 C CNN
F 1 "22K" V 4200 8250 50  0000 C CNN
F 2 "Resistors_THT:R_Axial_DIN0207_L6.3mm_D2.5mm_P10.16mm_Horizontal" V 4130 8250 50  0001 C CNN
F 3 "" H 4200 8250 50  0000 C CNN
	1    4200 8250
	-1   0    0    1   
$EndComp
Wire Wire Line
	4200 8100 4200 8000
Connection ~ 4200 8000
$Comp
L power:GND #PWR018
U 1 1 61C08CB6
P 4200 8500
F 0 "#PWR018" H 4200 8250 50  0001 C CNN
F 1 "GND" H 4200 8350 50  0000 C CNN
F 2 "" H 4200 8500 50  0000 C CNN
F 3 "" H 4200 8500 50  0000 C CNN
	1    4200 8500
	-1   0    0    -1  
$EndComp
Wire Wire Line
	4200 8400 4200 8500
$Comp
L my-relays:OMRON-G5RL-K1A-E K3
U 1 1 61C4AE00
P 2400 2150
F 0 "K3" H 2350 2550 50  0000 C CNN
F 1 "OMRON-G5RL-K1A-E" H 2395 1350 50  0000 C CNN
F 2 "myRelays:Relay_SPST_Omron-G5RL-K1A-E" H 2400 2150 50  0001 C CNN
F 3 "" H 2400 2150 50  0000 C CNN
	1    2400 2150
	-1   0    0    -1  
$EndComp
Wire Wire Line
	3000 3900 3000 5000
Wire Wire Line
	3000 3900 3100 3900
Wire Wire Line
	3500 4000 3500 4200
Wire Wire Line
	3000 5000 3100 5000
Wire Wire Line
	3500 5100 3500 5300
Wire Wire Line
	2900 5300 2900 5850
Wire Wire Line
	1700 6700 2300 6700
Wire Wire Line
	1800 6600 2300 6600
Wire Wire Line
	1200 3950 1850 3950
Wire Wire Line
	1550 3750 1100 3750
Wire Wire Line
	7250 7400 7250 7500
Wire Wire Line
	1700 4700 1700 6700
Wire Wire Line
	1550 4700 1700 4700
Wire Wire Line
	7250 7900 7250 8000
Wire Wire Line
	1800 5850 1800 6600
Wire Wire Line
	1700 3850 1700 4700
Wire Wire Line
	3500 2800 3500 2900
Wire Wire Line
	3000 2500 3000 2700
Wire Wire Line
	3000 1800 3000 2500
Wire Wire Line
	3500 1900 3500 2000
Wire Wire Line
	1200 2000 1900 2000
Wire Wire Line
	1700 2600 1700 3850
Wire Wire Line
	1900 2000 2000 2000
Wire Wire Line
	2900 2200 2900 3100
Wire Wire Line
	4850 8000 4850 8500
Wire Wire Line
	4900 7900 4900 8400
Wire Wire Line
	4200 8000 4850 8000
$EndSCHEMATC
