EESchema Schematic File Version 4
EELAYER 30 0
EELAYER END
$Descr A4 11693 8268
encoding utf-8
Sheet 1 1
Title ""
Date ""
Rev ""
Comp ""
Comment1 ""
Comment2 ""
Comment3 ""
Comment4 ""
$EndDescr
$Comp
L 4xxx:4001 U1
U 1 1 625B6D49
P 3950 2850
F 0 "U1" H 3950 3175 50  0000 C CNN
F 1 "4001" H 3950 3084 50  0000 C CNN
F 2 "Housings_DIP:DIP-14_W7.62mm_LongPads" H 3950 2850 50  0001 C CNN
F 3 "http://www.intersil.com/content/dam/Intersil/documents/cd40/cd4000bms-01bms-02bms-25bms.pdf" H 3950 2850 50  0001 C CNN
	1    3950 2850
	1    0    0    -1  
$EndComp
$Comp
L 4xxx:4001 U1
U 2 1 625B8258
P 5150 2950
F 0 "U1" H 5150 3275 50  0000 C CNN
F 1 "4001" H 5150 3184 50  0000 C CNN
F 2 "Housings_DIP:DIP-14_W7.62mm_LongPads" H 5150 2950 50  0001 C CNN
F 3 "http://www.intersil.com/content/dam/Intersil/documents/cd40/cd4000bms-01bms-02bms-25bms.pdf" H 5150 2950 50  0001 C CNN
	2    5150 2950
	1    0    0    -1  
$EndComp
$Comp
L 4xxx:4011 U2
U 1 1 625B9B05
P 3950 4000
F 0 "U2" H 3950 3650 50  0000 C CNN
F 1 "4011" H 3950 3750 50  0000 C CNN
F 2 "Housings_DIP:DIP-14_W7.62mm_LongPads" H 3950 4000 50  0001 C CNN
F 3 "http://www.intersil.com/content/dam/Intersil/documents/cd40/cd4011bms-12bms-23bms.pdf" H 3950 4000 50  0001 C CNN
	1    3950 4000
	1    0    0    -1  
$EndComp
$Comp
L 4xxx:4011 U2
U 2 1 625BB0BE
P 5150 4000
F 0 "U2" H 5150 3650 50  0000 C CNN
F 1 "4011" H 5150 3750 50  0000 C CNN
F 2 "Housings_DIP:DIP-14_W7.62mm_LongPads" H 5150 4000 50  0001 C CNN
F 3 "http://www.intersil.com/content/dam/Intersil/documents/cd40/cd4011bms-12bms-23bms.pdf" H 5150 4000 50  0001 C CNN
	2    5150 4000
	1    0    0    -1  
$EndComp
$Comp
L 4xxx:4011 U2
U 3 1 625BC021
P 6050 4000
F 0 "U2" H 6050 4325 50  0000 C CNN
F 1 "4011" H 6050 4234 50  0000 C CNN
F 2 "Housings_DIP:DIP-14_W7.62mm_LongPads" H 6050 4000 50  0001 C CNN
F 3 "http://www.intersil.com/content/dam/Intersil/documents/cd40/cd4011bms-12bms-23bms.pdf" H 6050 4000 50  0001 C CNN
	3    6050 4000
	1    0    0    -1  
$EndComp
$Comp
L my_switches:SW_SPST SW1
U 1 1 625BD1C4
P 3300 3050
F 0 "SW1" V 3250 2850 50  0000 L CNN
F 1 "SENSOR" V 3350 2700 50  0000 L CNN
F 2 "Pin_Headers:Pin_Header_Straight_1x02_Pitch2.54mm" H 3300 3050 50  0001 C CNN
F 3 "" H 3300 3050 50  0001 C CNN
	1    3300 3050
	0    1    1    0   
$EndComp
$Comp
L Device:R R1
U 1 1 625BE10D
P 3300 2500
F 0 "R1" H 3370 2546 50  0000 L CNN
F 1 "47K" H 3370 2455 50  0000 L CNN
F 2 "Resistors_THT:R_Axial_DIN0207_L6.3mm_D2.5mm_P10.16mm_Horizontal" V 3230 2500 50  0001 C CNN
F 3 "~" H 3300 2500 50  0001 C CNN
	1    3300 2500
	1    0    0    -1  
$EndComp
Wire Wire Line
	3300 2250 3300 2350
Wire Wire Line
	3300 2650 3300 2750
Wire Wire Line
	3300 2750 3500 2750
Wire Wire Line
	3300 2750 3300 2850
Connection ~ 3300 2750
$Comp
L power:GND #PWR0102
U 1 1 625C1043
P 3300 3350
F 0 "#PWR0102" H 3300 3100 50  0001 C CNN
F 1 "GND" H 3305 3177 50  0000 C CNN
F 2 "" H 3300 3350 50  0001 C CNN
F 3 "" H 3300 3350 50  0001 C CNN
	1    3300 3350
	1    0    0    -1  
$EndComp
Wire Wire Line
	3300 3350 3300 3250
$Comp
L Device:CP C1
U 1 1 625C26D4
P 4500 2850
F 0 "C1" V 4245 2850 50  0000 C CNN
F 1 "1000µF" V 4336 2850 50  0000 C CNN
F 2 "Capacitors_THT:CP_Radial_D10.0mm_P5.00mm" H 4538 2700 50  0001 C CNN
F 3 "~" H 4500 2850 50  0001 C CNN
	1    4500 2850
	0    1    1    0   
$EndComp
Wire Wire Line
	4350 2850 4250 2850
Wire Wire Line
	4850 2850 4750 2850
Wire Wire Line
	4750 2850 4750 3050
Wire Wire Line
	4750 3050 4850 3050
Wire Wire Line
	5450 2950 5550 2950
Wire Wire Line
	5550 2950 5550 3200
Wire Wire Line
	5550 3200 3550 3200
Wire Wire Line
	3550 3200 3550 2950
Wire Wire Line
	3550 2950 3650 2950
Wire Wire Line
	4650 2850 4750 2850
Connection ~ 4750 2850
$Comp
L Device:R R2
U 1 1 625DE3A7
P 4750 2600
F 0 "R2" H 4820 2646 50  0000 L CNN
F 1 "39K" H 4820 2555 50  0000 L CNN
F 2 "Resistors_THT:R_Axial_DIN0207_L6.3mm_D2.5mm_P10.16mm_Horizontal" V 4680 2600 50  0001 C CNN
F 3 "~" H 4750 2600 50  0001 C CNN
	1    4750 2600
	1    0    0    -1  
$EndComp
Wire Wire Line
	4750 2750 4750 2850
Wire Wire Line
	4750 2350 4750 2450
Wire Wire Line
	5450 4000 5550 4000
Wire Wire Line
	5550 4000 5550 3750
Wire Wire Line
	5550 3750 3550 3750
Wire Wire Line
	3550 3750 3550 3900
Wire Wire Line
	3550 3900 3650 3900
Wire Wire Line
	3500 2750 3500 4100
Wire Wire Line
	3500 4100 3650 4100
Connection ~ 3500 2750
Wire Wire Line
	3500 2750 3650 2750
Wire Wire Line
	4850 3900 4750 3900
Wire Wire Line
	4750 3900 4750 4000
Wire Wire Line
	4750 4100 4850 4100
$Comp
L Device:CP C2
U 1 1 625E3CBE
P 4500 4000
F 0 "C2" V 4750 4000 50  0000 C CNN
F 1 "1000µF" V 4650 4000 50  0000 C CNN
F 2 "Capacitors_THT:CP_Radial_D10.0mm_P5.00mm" H 4538 3850 50  0001 C CNN
F 3 "~" H 4500 4000 50  0001 C CNN
	1    4500 4000
	0    -1   -1   0   
$EndComp
Wire Wire Line
	4650 4000 4750 4000
Connection ~ 4750 4000
Wire Wire Line
	4750 4000 4750 4100
Wire Wire Line
	4350 4000 4250 4000
$Comp
L Device:R R3
U 1 1 625EEBD0
P 4750 4350
F 0 "R3" H 4820 4396 50  0000 L CNN
F 1 "39K" H 4820 4305 50  0000 L CNN
F 2 "Resistors_THT:R_Axial_DIN0207_L6.3mm_D2.5mm_P10.16mm_Horizontal" V 4680 4350 50  0001 C CNN
F 3 "~" H 4750 4350 50  0001 C CNN
	1    4750 4350
	1    0    0    -1  
$EndComp
Wire Wire Line
	4750 4100 4750 4200
Connection ~ 4750 4100
$Comp
L power:GND #PWR0104
U 1 1 625EFB0B
P 4750 4600
F 0 "#PWR0104" H 4750 4350 50  0001 C CNN
F 1 "GND" H 4755 4427 50  0000 C CNN
F 2 "" H 4750 4600 50  0001 C CNN
F 3 "" H 4750 4600 50  0001 C CNN
	1    4750 4600
	1    0    0    -1  
$EndComp
Wire Wire Line
	4750 4500 4750 4600
Wire Wire Line
	5750 3900 5650 3900
Wire Wire Line
	5650 3900 5650 4000
Wire Wire Line
	5650 4100 5750 4100
Wire Wire Line
	5650 4000 5550 4000
Connection ~ 5650 4000
Wire Wire Line
	5650 4000 5650 4100
Connection ~ 5550 4000
$Comp
L my_relays:RELAY_SPDT K2
U 1 1 6261146E
P 7850 3850
F 0 "K2" H 7850 4165 50  0000 C CNN
F 1 "SRD-05VDC-SL-C" H 7850 4074 50  0000 C CNN
F 2 "myRelays:SRD-5VDC-SL-C" H 7850 3850 50  0001 C CNN
F 3 "" H 7850 3850 50  0000 C CNN
	1    7850 3850
	1    0    0    -1  
$EndComp
$Comp
L Device:D D2
U 1 1 626242F9
P 7050 3950
F 0 "D2" V 7000 3750 50  0000 L CNN
F 1 "1N4148" V 7100 3550 50  0000 L CNN
F 2 "Diodes_THT:D_DO-35_SOD27_P7.62mm_Horizontal" H 7050 3950 50  0001 C CNN
F 3 "~" H 7050 3950 50  0001 C CNN
	1    7050 3950
	0    1    1    0   
$EndComp
$Comp
L Device:Q_NPN_EBC Q2
U 1 1 6260FF5B
P 7150 4500
F 0 "Q2" H 7000 4600 50  0000 L CNN
F 1 "2N2222" H 6900 4300 50  0000 L CNN
F 2 "TO_SOT_Packages_THT:TO-92_Inline_Wide" H 7350 4600 50  0001 C CNN
F 3 "~" H 7150 4500 50  0001 C CNN
	1    7150 4500
	1    0    0    -1  
$EndComp
Wire Wire Line
	7250 4300 7250 4200
Wire Wire Line
	7250 4200 7450 4200
Wire Wire Line
	7250 4200 7050 4200
Wire Wire Line
	7050 4200 7050 4100
Connection ~ 7250 4200
Wire Wire Line
	7250 4100 7450 4100
Wire Wire Line
	7050 3800 7050 3700
Wire Wire Line
	7050 3700 7250 3700
Wire Wire Line
	7250 3700 7250 4100
Wire Wire Line
	6950 4500 6850 4500
Wire Wire Line
	6550 4500 6450 4500
Wire Wire Line
	6450 4500 6450 4000
Wire Wire Line
	6450 4000 6350 4000
$Comp
L power:GND #PWR0106
U 1 1 626417C9
P 7250 4800
F 0 "#PWR0106" H 7250 4550 50  0001 C CNN
F 1 "GND" H 7255 4627 50  0000 C CNN
F 2 "" H 7250 4800 50  0001 C CNN
F 3 "" H 7250 4800 50  0001 C CNN
	1    7250 4800
	1    0    0    -1  
$EndComp
Wire Wire Line
	7250 4800 7250 4700
$Comp
L Device:R R5
U 1 1 6264360E
P 6700 4500
F 0 "R5" V 6493 4500 50  0000 C CNN
F 1 "1K" V 6584 4500 50  0000 C CNN
F 2 "Resistors_THT:R_Axial_DIN0207_L6.3mm_D2.5mm_P10.16mm_Horizontal" V 6630 4500 50  0001 C CNN
F 3 "~" H 6700 4500 50  0001 C CNN
	1    6700 4500
	0    1    1    0   
$EndComp
$Comp
L Connector_Generic:Conn_01x02 J3
U 1 1 62644D85
P 9150 3900
F 0 "J3" H 9230 3892 50  0000 L CNN
F 1 "VALVE-CLOSE" H 9230 3801 50  0000 L CNN
F 2 "Connectors_Terminal_Blocks:TerminalBlock_bornier-2_P5.08mm" H 9150 3900 50  0001 C CNN
F 3 "~" H 9150 3900 50  0001 C CNN
	1    9150 3900
	1    0    0    -1  
$EndComp
$Comp
L Device:Varistor RV2
U 1 1 62645A17
P 8600 3700
F 0 "RV2" V 8342 3700 50  0000 C CNN
F 1 "SIOV-S10K275" V 8433 3700 50  0000 C CNN
F 2 "Varistors:RV_Disc_D12_W3.9_P7.5" V 8530 3700 50  0001 C CNN
F 3 "~" H 8600 3700 50  0001 C CNN
	1    8600 3700
	0    1    1    0   
$EndComp
$Comp
L Connector_Generic:Conn_01x02 J1
U 1 1 6264C04B
P 9150 1450
F 0 "J1" H 9230 1442 50  0000 L CNN
F 1 "230V" H 9230 1351 50  0000 L CNN
F 2 "Connectors_Terminal_Blocks:TerminalBlock_bornier-2_P5.08mm" H 9150 1450 50  0001 C CNN
F 3 "~" H 9150 1450 50  0001 C CNN
	1    9150 1450
	1    0    0    -1  
$EndComp
$Comp
L my_relays:RELAY_SPDT K1
U 1 1 62670BAF
P 7850 2100
F 0 "K1" H 7850 2415 50  0000 C CNN
F 1 "SRD-05VDC-SL-C" H 7850 2324 50  0000 C CNN
F 2 "myRelays:SRD-5VDC-SL-C" H 7850 2100 50  0001 C CNN
F 3 "" H 7850 2100 50  0000 C CNN
	1    7850 2100
	1    0    0    -1  
$EndComp
$Comp
L Device:D D1
U 1 1 62670BB9
P 7050 2200
F 0 "D1" V 7000 2000 50  0000 L CNN
F 1 "1N4148" V 7100 1800 50  0000 L CNN
F 2 "Diodes_THT:D_DO-35_SOD27_P7.62mm_Horizontal" H 7050 2200 50  0001 C CNN
F 3 "~" H 7050 2200 50  0001 C CNN
	1    7050 2200
	0    1    1    0   
$EndComp
$Comp
L Device:Q_NPN_EBC Q1
U 1 1 62670BC3
P 7150 2750
F 0 "Q1" H 7000 2850 50  0000 L CNN
F 1 "2N2222" H 6900 2550 50  0000 L CNN
F 2 "TO_SOT_Packages_THT:TO-92_Inline_Wide" H 7350 2850 50  0001 C CNN
F 3 "~" H 7150 2750 50  0001 C CNN
	1    7150 2750
	1    0    0    -1  
$EndComp
Wire Wire Line
	7250 2550 7250 2450
Wire Wire Line
	7250 2450 7450 2450
Wire Wire Line
	7250 2450 7050 2450
Wire Wire Line
	7050 2450 7050 2350
Connection ~ 7250 2450
Wire Wire Line
	7250 2350 7450 2350
Wire Wire Line
	7050 2050 7050 1950
Wire Wire Line
	7050 1950 7250 1950
Wire Wire Line
	7250 1950 7250 2350
Wire Wire Line
	6950 2750 6850 2750
$Comp
L power:GND #PWR0108
U 1 1 62670BE4
P 7250 3050
F 0 "#PWR0108" H 7250 2800 50  0001 C CNN
F 1 "GND" H 7255 2877 50  0000 C CNN
F 2 "" H 7250 3050 50  0001 C CNN
F 3 "" H 7250 3050 50  0001 C CNN
	1    7250 3050
	1    0    0    -1  
$EndComp
Wire Wire Line
	7250 3050 7250 2950
$Comp
L Device:R R4
U 1 1 62670BEF
P 6700 2750
F 0 "R4" V 6493 2750 50  0000 C CNN
F 1 "1K" V 6584 2750 50  0000 C CNN
F 2 "Resistors_THT:R_Axial_DIN0207_L6.3mm_D2.5mm_P10.16mm_Horizontal" V 6630 2750 50  0001 C CNN
F 3 "~" H 6700 2750 50  0001 C CNN
	1    6700 2750
	0    1    1    0   
$EndComp
$Comp
L Connector_Generic:Conn_01x02 J2
U 1 1 62670BF9
P 9150 2150
F 0 "J2" H 9230 2142 50  0000 L CNN
F 1 "VALVE-OPEN" H 9230 2051 50  0000 L CNN
F 2 "Connectors_Terminal_Blocks:TerminalBlock_bornier-2_P5.08mm" H 9150 2150 50  0001 C CNN
F 3 "~" H 9150 2150 50  0001 C CNN
	1    9150 2150
	1    0    0    -1  
$EndComp
$Comp
L Device:Varistor RV1
U 1 1 62670C03
P 8600 1950
F 0 "RV1" V 8342 1950 50  0000 C CNN
F 1 "SIOV-S10K275" V 8433 1950 50  0000 C CNN
F 2 "Varistors:RV_Disc_D12_W3.9_P7.5" V 8530 1950 50  0001 C CNN
F 3 "~" H 8600 1950 50  0001 C CNN
	1    8600 1950
	0    1    1    0   
$EndComp
Wire Wire Line
	5550 2950 6350 2950
Wire Wire Line
	6350 2950 6350 2750
Wire Wire Line
	6350 2750 6550 2750
Connection ~ 5550 2950
Wire Wire Line
	7450 2150 7350 2150
Wire Wire Line
	7350 2150 7350 3900
Wire Wire Line
	7350 3900 7450 3900
Wire Wire Line
	7050 3600 7050 3700
Connection ~ 7050 3700
Wire Wire Line
	7050 1850 7050 1950
Connection ~ 7050 1950
Wire Wire Line
	8450 3700 8350 3700
Wire Wire Line
	8350 3700 8350 4000
Wire Wire Line
	8350 4000 8250 4000
Wire Wire Line
	8950 4000 8350 4000
Connection ~ 8350 4000
Wire Wire Line
	8750 3700 8850 3700
Wire Wire Line
	8850 3700 8850 3900
Wire Wire Line
	8850 3900 8950 3900
Wire Wire Line
	8950 2250 8350 2250
Wire Wire Line
	8950 1450 7350 1450
Wire Wire Line
	7350 1450 7350 2150
Connection ~ 7350 2150
Wire Wire Line
	8950 1550 8850 1550
Wire Wire Line
	8850 1550 8850 1950
Wire Wire Line
	8850 2150 8950 2150
Wire Wire Line
	8850 2150 8850 3700
Connection ~ 8850 2150
Connection ~ 8850 3700
Wire Wire Line
	8750 1950 8850 1950
Connection ~ 8850 1950
Wire Wire Line
	8850 1950 8850 2150
Wire Wire Line
	8450 1950 8350 1950
Wire Wire Line
	8350 1950 8350 2250
Connection ~ 8350 2250
Wire Wire Line
	8350 2250 8250 2250
$Comp
L my_psu:IRM-XX-XX U3
U 1 1 62779D59
P 5950 1500
F 0 "U3" H 5950 1887 60  0000 C CNN
F 1 "IRM-XX-XX" H 5950 1781 60  0000 C CNN
F 2 "myPowerSupplies:HLK-PM01" H 5950 1500 60  0001 C CNN
F 3 "" H 5950 1500 60  0000 C CNN
	1    5950 1500
	-1   0    0    -1  
$EndComp
Wire Wire Line
	7350 1450 6600 1450
Connection ~ 7350 1450
Wire Wire Line
	8850 1550 6600 1550
Connection ~ 8850 1550
$Comp
L power:+5V #PWR0101
U 1 1 62783529
P 5200 1300
F 0 "#PWR0101" H 5200 1150 50  0001 C CNN
F 1 "+5V" H 5215 1473 50  0000 C CNN
F 2 "" H 5200 1300 50  0001 C CNN
F 3 "" H 5200 1300 50  0001 C CNN
	1    5200 1300
	1    0    0    -1  
$EndComp
Wire Wire Line
	5200 1300 5200 1400
Wire Wire Line
	5200 1400 5300 1400
$Comp
L power:GND #PWR0105
U 1 1 62785FFF
P 5200 1700
F 0 "#PWR0105" H 5200 1450 50  0001 C CNN
F 1 "GND" H 5205 1527 50  0000 C CNN
F 2 "" H 5200 1700 50  0001 C CNN
F 3 "" H 5200 1700 50  0001 C CNN
	1    5200 1700
	1    0    0    -1  
$EndComp
Wire Wire Line
	5300 1600 5200 1600
Wire Wire Line
	5200 1600 5200 1700
$Comp
L power:+5V #PWR0107
U 1 1 6278E6E6
P 7050 1850
F 0 "#PWR0107" H 7050 1700 50  0001 C CNN
F 1 "+5V" H 7065 2023 50  0000 C CNN
F 2 "" H 7050 1850 50  0001 C CNN
F 3 "" H 7050 1850 50  0001 C CNN
	1    7050 1850
	1    0    0    -1  
$EndComp
$Comp
L power:+5V #PWR0109
U 1 1 627988A2
P 7050 3600
F 0 "#PWR0109" H 7050 3450 50  0001 C CNN
F 1 "+5V" H 7065 3773 50  0000 C CNN
F 2 "" H 7050 3600 50  0001 C CNN
F 3 "" H 7050 3600 50  0001 C CNN
	1    7050 3600
	1    0    0    -1  
$EndComp
$Comp
L power:+5V #PWR0110
U 1 1 6279AB13
P 3300 2250
F 0 "#PWR0110" H 3300 2100 50  0001 C CNN
F 1 "+5V" H 3315 2423 50  0000 C CNN
F 2 "" H 3300 2250 50  0001 C CNN
F 3 "" H 3300 2250 50  0001 C CNN
	1    3300 2250
	1    0    0    -1  
$EndComp
$Comp
L power:VDD #PWR0111
U 1 1 6279CBA4
P 5000 1300
F 0 "#PWR0111" H 5000 1150 50  0001 C CNN
F 1 "VDD" H 5017 1473 50  0000 C CNN
F 2 "" H 5000 1300 50  0001 C CNN
F 3 "" H 5000 1300 50  0001 C CNN
	1    5000 1300
	1    0    0    -1  
$EndComp
Wire Wire Line
	5000 1300 5000 1400
Wire Wire Line
	5000 1400 5200 1400
Connection ~ 5200 1400
$Comp
L power:VSS #PWR0112
U 1 1 627A029F
P 5000 1700
F 0 "#PWR0112" H 5000 1550 50  0001 C CNN
F 1 "VSS" H 5018 1873 50  0000 C CNN
F 2 "" H 5000 1700 50  0001 C CNN
F 3 "" H 5000 1700 50  0001 C CNN
	1    5000 1700
	-1   0    0    1   
$EndComp
Wire Wire Line
	5000 1700 5000 1600
Wire Wire Line
	5000 1600 5200 1600
Connection ~ 5200 1600
$Comp
L power:+5V #PWR0103
U 1 1 627BC462
P 4750 2350
F 0 "#PWR0103" H 4750 2200 50  0001 C CNN
F 1 "+5V" H 4765 2523 50  0000 C CNN
F 2 "" H 4750 2350 50  0001 C CNN
F 3 "" H 4750 2350 50  0001 C CNN
	1    4750 2350
	1    0    0    -1  
$EndComp
$EndSCHEMATC
