(export (version D)
  (design
    (source /home/riton/projects/rainwater-tank/valve-control/valve-control.sch)
    (date "lun. 18 avril 2022 16:23:39")
    (tool "Eeschema 5.1.5+dfsg1-2build2")
    (sheet (number 1) (name /) (tstamps /)
      (title_block
        (title)
        (company)
        (rev)
        (date)
        (source valve-control.sch)
        (comment (number 1) (value ""))
        (comment (number 2) (value ""))
        (comment (number 3) (value ""))
        (comment (number 4) (value "")))))
  (components
    (comp (ref U1)
      (value 4001)
      (footprint Housings_DIP:DIP-14_W7.62mm_LongPads)
      (datasheet http://www.intersil.com/content/dam/Intersil/documents/cd40/cd4000bms-01bms-02bms-25bms.pdf)
      (libsource (lib 4xxx) (part 4001) (description "Quad Nor 2 inputs"))
      (sheetpath (names /) (tstamps /))
      (tstamp 625B6D49))
    (comp (ref U2)
      (value 4011)
      (footprint Housings_DIP:DIP-14_W7.62mm_LongPads)
      (datasheet http://www.intersil.com/content/dam/Intersil/documents/cd40/cd4011bms-12bms-23bms.pdf)
      (libsource (lib 4xxx) (part 4011) (description "Quad Nand 2 inputs"))
      (sheetpath (names /) (tstamps /))
      (tstamp 625B9B05))
    (comp (ref SW1)
      (value SENSOR)
      (footprint Pin_Headers:Pin_Header_Straight_1x02_Pitch2.54mm)
      (libsource (lib my_switches) (part SW_SPST) (description "Switch, dual pole double throw, separate symbols"))
      (sheetpath (names /) (tstamps /))
      (tstamp 625BD1C4))
    (comp (ref R1)
      (value 47K)
      (footprint Resistors_THT:R_Axial_DIN0207_L6.3mm_D2.5mm_P10.16mm_Horizontal)
      (datasheet ~)
      (libsource (lib Device) (part R) (description Resistor))
      (sheetpath (names /) (tstamps /))
      (tstamp 625BE10D))
    (comp (ref C1)
      (value 1000µF)
      (footprint Capacitors_THT:CP_Radial_D10.0mm_P5.00mm)
      (datasheet ~)
      (libsource (lib Device) (part CP) (description "Polarized capacitor"))
      (sheetpath (names /) (tstamps /))
      (tstamp 625C26D4))
    (comp (ref R2)
      (value 39K)
      (footprint Resistors_THT:R_Axial_DIN0207_L6.3mm_D2.5mm_P10.16mm_Horizontal)
      (datasheet ~)
      (libsource (lib Device) (part R) (description Resistor))
      (sheetpath (names /) (tstamps /))
      (tstamp 625DE3A7))
    (comp (ref C2)
      (value 1000µF)
      (footprint Capacitors_THT:CP_Radial_D10.0mm_P5.00mm)
      (datasheet ~)
      (libsource (lib Device) (part CP) (description "Polarized capacitor"))
      (sheetpath (names /) (tstamps /))
      (tstamp 625E3CBE))
    (comp (ref R3)
      (value 39K)
      (footprint Resistors_THT:R_Axial_DIN0207_L6.3mm_D2.5mm_P10.16mm_Horizontal)
      (datasheet ~)
      (libsource (lib Device) (part R) (description Resistor))
      (sheetpath (names /) (tstamps /))
      (tstamp 625EEBD0))
    (comp (ref K2)
      (value SRD-05VDC-SL-C)
      (footprint myRelays:SRD-5VDC-SL-C)
      (libsource (lib my_relays) (part RELAY_SPDT) (description "SPDT relay"))
      (sheetpath (names /) (tstamps /))
      (tstamp 6261146E))
    (comp (ref D2)
      (value 1N4148)
      (footprint Diodes_THT:D_DO-35_SOD27_P7.62mm_Horizontal)
      (datasheet ~)
      (libsource (lib Device) (part D) (description Diode))
      (sheetpath (names /) (tstamps /))
      (tstamp 626242F9))
    (comp (ref Q2)
      (value 2N2222)
      (footprint TO_SOT_Packages_THT:TO-92_Inline_Wide)
      (datasheet ~)
      (libsource (lib Device) (part Q_NPN_EBC) (description "NPN transistor, emitter/base/collector"))
      (sheetpath (names /) (tstamps /))
      (tstamp 6260FF5B))
    (comp (ref R5)
      (value 1K)
      (footprint Resistors_THT:R_Axial_DIN0207_L6.3mm_D2.5mm_P10.16mm_Horizontal)
      (datasheet ~)
      (libsource (lib Device) (part R) (description Resistor))
      (sheetpath (names /) (tstamps /))
      (tstamp 6264360E))
    (comp (ref J3)
      (value VALVE-CLOSE)
      (footprint Connectors_Terminal_Blocks:TerminalBlock_bornier-2_P5.08mm)
      (datasheet ~)
      (libsource (lib Connector_Generic) (part Conn_01x02) (description "Generic connector, single row, 01x02, script generated (kicad-library-utils/schlib/autogen/connector/)"))
      (sheetpath (names /) (tstamps /))
      (tstamp 62644D85))
    (comp (ref RV2)
      (value SIOV-S10K275)
      (footprint Varistors:RV_Disc_D12_W3.9_P7.5)
      (datasheet ~)
      (libsource (lib Device) (part Varistor) (description "Voltage dependent resistor"))
      (sheetpath (names /) (tstamps /))
      (tstamp 62645A17))
    (comp (ref J1)
      (value 230V)
      (footprint Connectors_Terminal_Blocks:TerminalBlock_bornier-2_P5.08mm)
      (datasheet ~)
      (libsource (lib Connector_Generic) (part Conn_01x02) (description "Generic connector, single row, 01x02, script generated (kicad-library-utils/schlib/autogen/connector/)"))
      (sheetpath (names /) (tstamps /))
      (tstamp 6264C04B))
    (comp (ref K1)
      (value SRD-05VDC-SL-C)
      (footprint myRelays:SRD-5VDC-SL-C)
      (libsource (lib my_relays) (part RELAY_SPDT) (description "SPDT relay"))
      (sheetpath (names /) (tstamps /))
      (tstamp 62670BAF))
    (comp (ref D1)
      (value 1N4148)
      (footprint Diodes_THT:D_DO-35_SOD27_P7.62mm_Horizontal)
      (datasheet ~)
      (libsource (lib Device) (part D) (description Diode))
      (sheetpath (names /) (tstamps /))
      (tstamp 62670BB9))
    (comp (ref Q1)
      (value 2N2222)
      (footprint TO_SOT_Packages_THT:TO-92_Inline_Wide)
      (datasheet ~)
      (libsource (lib Device) (part Q_NPN_EBC) (description "NPN transistor, emitter/base/collector"))
      (sheetpath (names /) (tstamps /))
      (tstamp 62670BC3))
    (comp (ref R4)
      (value 1K)
      (footprint Resistors_THT:R_Axial_DIN0207_L6.3mm_D2.5mm_P10.16mm_Horizontal)
      (datasheet ~)
      (libsource (lib Device) (part R) (description Resistor))
      (sheetpath (names /) (tstamps /))
      (tstamp 62670BEF))
    (comp (ref J2)
      (value VALVE-OPEN)
      (footprint Connectors_Terminal_Blocks:TerminalBlock_bornier-2_P5.08mm)
      (datasheet ~)
      (libsource (lib Connector_Generic) (part Conn_01x02) (description "Generic connector, single row, 01x02, script generated (kicad-library-utils/schlib/autogen/connector/)"))
      (sheetpath (names /) (tstamps /))
      (tstamp 62670BF9))
    (comp (ref RV1)
      (value SIOV-S10K275)
      (footprint Varistors:RV_Disc_D12_W3.9_P7.5)
      (datasheet ~)
      (libsource (lib Device) (part Varistor) (description "Voltage dependent resistor"))
      (sheetpath (names /) (tstamps /))
      (tstamp 62670C03))
    (comp (ref U3)
      (value IRM-XX-XX)
      (footprint myPowerSupplies:HLK-PM01)
      (libsource (lib my_psu) (part IRM-XX-XX) (description "MEANWELL IRM-XX-XX modules"))
      (sheetpath (names /) (tstamps /))
      (tstamp 62779D59)))
  (libparts
    (libpart (lib 4xxx) (part 4001)
      (description "Quad Nor 2 inputs")
      (docs http://www.intersil.com/content/dam/Intersil/documents/cd40/cd4000bms-01bms-02bms-25bms.pdf)
      (footprints
        (fp DIP?14*))
      (fields
        (field (name Reference) U)
        (field (name Value) 4001))
      (pins
        (pin (num 1) (name ~) (type input))
        (pin (num 2) (name ~) (type input))
        (pin (num 3) (name ~) (type output))
        (pin (num 4) (name ~) (type output))
        (pin (num 5) (name ~) (type input))
        (pin (num 6) (name ~) (type input))
        (pin (num 7) (name VSS) (type power_in))
        (pin (num 8) (name ~) (type input))
        (pin (num 9) (name ~) (type input))
        (pin (num 10) (name ~) (type output))
        (pin (num 11) (name ~) (type output))
        (pin (num 12) (name ~) (type input))
        (pin (num 13) (name ~) (type input))
        (pin (num 14) (name VDD) (type power_in))))
    (libpart (lib 4xxx) (part 4011)
      (description "Quad Nand 2 inputs")
      (docs http://www.intersil.com/content/dam/Intersil/documents/cd40/cd4011bms-12bms-23bms.pdf)
      (footprints
        (fp DIP?14*))
      (fields
        (field (name Reference) U)
        (field (name Value) 4011))
      (pins
        (pin (num 1) (name ~) (type input))
        (pin (num 2) (name ~) (type input))
        (pin (num 3) (name ~) (type output))
        (pin (num 4) (name ~) (type output))
        (pin (num 5) (name ~) (type input))
        (pin (num 6) (name ~) (type input))
        (pin (num 7) (name VSS) (type power_in))
        (pin (num 8) (name ~) (type input))
        (pin (num 9) (name ~) (type input))
        (pin (num 10) (name ~) (type output))
        (pin (num 11) (name ~) (type output))
        (pin (num 12) (name ~) (type input))
        (pin (num 13) (name ~) (type input))
        (pin (num 14) (name VDD) (type power_in))))
    (libpart (lib Connector_Generic) (part Conn_01x02)
      (description "Generic connector, single row, 01x02, script generated (kicad-library-utils/schlib/autogen/connector/)")
      (docs ~)
      (footprints
        (fp Connector*:*_1x??_*))
      (fields
        (field (name Reference) J)
        (field (name Value) Conn_01x02))
      (pins
        (pin (num 1) (name Pin_1) (type passive))
        (pin (num 2) (name Pin_2) (type passive))))
    (libpart (lib Device) (part CP)
      (description "Polarized capacitor")
      (docs ~)
      (footprints
        (fp CP_*))
      (fields
        (field (name Reference) C)
        (field (name Value) CP))
      (pins
        (pin (num 1) (name ~) (type passive))
        (pin (num 2) (name ~) (type passive))))
    (libpart (lib Device) (part D)
      (description Diode)
      (docs ~)
      (footprints
        (fp TO-???*)
        (fp *_Diode_*)
        (fp *SingleDiode*)
        (fp D_*))
      (fields
        (field (name Reference) D)
        (field (name Value) D))
      (pins
        (pin (num 1) (name K) (type passive))
        (pin (num 2) (name A) (type passive))))
    (libpart (lib Device) (part Q_NPN_EBC)
      (description "NPN transistor, emitter/base/collector")
      (docs ~)
      (fields
        (field (name Reference) Q)
        (field (name Value) Q_NPN_EBC))
      (pins
        (pin (num 1) (name E) (type passive))
        (pin (num 2) (name B) (type passive))
        (pin (num 3) (name C) (type passive))))
    (libpart (lib Device) (part R)
      (description Resistor)
      (docs ~)
      (footprints
        (fp R_*))
      (fields
        (field (name Reference) R)
        (field (name Value) R))
      (pins
        (pin (num 1) (name ~) (type passive))
        (pin (num 2) (name ~) (type passive))))
    (libpart (lib Device) (part Varistor)
      (description "Voltage dependent resistor")
      (docs ~)
      (footprints
        (fp RV_*)
        (fp Varistor*))
      (fields
        (field (name Reference) RV)
        (field (name Value) Varistor))
      (pins
        (pin (num 1) (name ~) (type passive))
        (pin (num 2) (name ~) (type passive))))
    (libpart (lib my_psu) (part IRM-XX-XX)
      (description "MEANWELL IRM-XX-XX modules")
      (fields
        (field (name Reference) U)
        (field (name Value) IRM-XX-XX))
      (pins
        (pin (num 1) (name AC/L) (type input))
        (pin (num 2) (name AC/N) (type input))
        (pin (num 3) (name -Vout) (type output))
        (pin (num 4) (name +Vout) (type output))))
    (libpart (lib my_relays) (part RELAY_SPDT)
      (description "SPDT relay")
      (fields
        (field (name Reference) K)
        (field (name Value) RELAY_SPDT))
      (pins
        (pin (num 1) (name 1) (type input))
        (pin (num 2) (name 2) (type input))
        (pin (num C1) (name C1) (type passive))
        (pin (num O1) (name O1) (type passive))
        (pin (num P1) (name P1) (type passive))))
    (libpart (lib my_switches) (part SW_SPST)
      (description "Switch, dual pole double throw, separate symbols")
      (footprints
        (fp SW*DPDT*))
      (fields
        (field (name Reference) SW)
        (field (name Value) SW_SPST))
      (pins
        (pin (num 1) (name B) (type passive))
        (pin (num 2) (name C) (type passive)))))
  (libraries
    (library (logical 4xxx)
      (uri /usr/share/kicad/library/4xxx.lib))
    (library (logical Connector_Generic)
      (uri /usr/share/kicad/library/Connector_Generic.lib))
    (library (logical Device)
      (uri /usr/share/kicad/library/Device.lib))
    (library (logical my_psu)
      (uri /home/riton/kicad/library/my-power-supplies.lib))
    (library (logical my_relays)
      (uri /home/riton/kicad/library/my-relays.lib))
    (library (logical my_switches)
      (uri /home/riton/kicad/library/my-switches.lib)))
  (nets
    (net (code 1) (name GND)
      (node (ref Q2) (pin 1))
      (node (ref Q1) (pin 1))
      (node (ref SW1) (pin 2))
      (node (ref U3) (pin 3))
      (node (ref R3) (pin 2)))
    (net (code 2) (name "Net-(J2-Pad2)")
      (node (ref J2) (pin 2))
      (node (ref RV1) (pin 2))
      (node (ref K1) (pin O1)))
    (net (code 3) (name "Net-(R4-Pad2)")
      (node (ref U1) (pin 2))
      (node (ref U1) (pin 4))
      (node (ref R4) (pin 2)))
    (net (code 4) (name "Net-(J3-Pad2)")
      (node (ref J3) (pin 2))
      (node (ref RV2) (pin 2))
      (node (ref K2) (pin O1)))
    (net (code 5) (name "Net-(K1-PadC1)")
      (node (ref K1) (pin C1)))
    (net (code 6) (name "Net-(Q1-Pad2)")
      (node (ref R4) (pin 1))
      (node (ref Q1) (pin 2)))
    (net (code 7) (name "Net-(D1-Pad2)")
      (node (ref K1) (pin 2))
      (node (ref D1) (pin 2))
      (node (ref Q1) (pin 3)))
    (net (code 8) (name "Net-(J1-Pad1)")
      (node (ref U3) (pin 1))
      (node (ref K1) (pin P1))
      (node (ref J1) (pin 1))
      (node (ref K2) (pin P1)))
    (net (code 9) (name "Net-(J1-Pad2)")
      (node (ref J3) (pin 1))
      (node (ref U3) (pin 2))
      (node (ref RV2) (pin 1))
      (node (ref J1) (pin 2))
      (node (ref RV1) (pin 1))
      (node (ref J2) (pin 1)))
    (net (code 10) (name "Net-(C1-Pad2)")
      (node (ref U1) (pin 3))
      (node (ref C1) (pin 2)))
    (net (code 11) (name "Net-(C1-Pad1)")
      (node (ref U1) (pin 6))
      (node (ref R2) (pin 2))
      (node (ref C1) (pin 1))
      (node (ref U1) (pin 5)))
    (net (code 12) (name "Net-(U2-Pad1)")
      (node (ref U2) (pin 9))
      (node (ref U2) (pin 1))
      (node (ref U2) (pin 8))
      (node (ref U2) (pin 4)))
    (net (code 13) (name +5V)
      (node (ref D1) (pin 1))
      (node (ref R1) (pin 1))
      (node (ref K2) (pin 1))
      (node (ref D2) (pin 1))
      (node (ref K1) (pin 1))
      (node (ref U3) (pin 4))
      (node (ref R2) (pin 1)))
    (net (code 14) (name "Net-(R1-Pad2)")
      (node (ref R1) (pin 2))
      (node (ref U1) (pin 1))
      (node (ref U2) (pin 2))
      (node (ref SW1) (pin 1)))
    (net (code 15) (name "Net-(Q2-Pad2)")
      (node (ref R5) (pin 1))
      (node (ref Q2) (pin 2)))
    (net (code 16) (name "Net-(D2-Pad2)")
      (node (ref Q2) (pin 3))
      (node (ref D2) (pin 2))
      (node (ref K2) (pin 2)))
    (net (code 17) (name "Net-(K2-PadC1)")
      (node (ref K2) (pin C1)))
    (net (code 18) (name "Net-(R5-Pad2)")
      (node (ref U2) (pin 10))
      (node (ref R5) (pin 2)))
    (net (code 19) (name "Net-(C2-Pad1)")
      (node (ref U2) (pin 3))
      (node (ref C2) (pin 1)))
    (net (code 20) (name "Net-(C2-Pad2)")
      (node (ref U2) (pin 6))
      (node (ref U2) (pin 5))
      (node (ref C2) (pin 2))
      (node (ref R3) (pin 1)))))