EESchema Schematic File Version 2
LIBS:rain-tank-rescue
LIBS:power
LIBS:device
LIBS:transistors
LIBS:conn
LIBS:linear
LIBS:regul
LIBS:74xx
LIBS:cmos4000
LIBS:adc-dac
LIBS:memory
LIBS:xilinx
LIBS:microcontrollers
LIBS:dsp
LIBS:microchip
LIBS:analog_switches
LIBS:motorola
LIBS:texas
LIBS:intel
LIBS:audio
LIBS:interface
LIBS:digital-audio
LIBS:philips
LIBS:display
LIBS:cypress
LIBS:siliconi
LIBS:opto
LIBS:atmel
LIBS:contrib
LIBS:valves
LIBS:my-misc-modules
LIBS:my-relays
LIBS:my-power-supplies
LIBS:my-connectors
LIBS:rain-tank-cache
EELAYER 25 0
EELAYER END
$Descr A4 8268 11693 portrait
encoding utf-8
Sheet 1 1
Title ""
Date ""
Rev ""
Comp ""
Comment1 ""
Comment2 ""
Comment3 ""
Comment4 ""
$EndDescr
$Comp
L SW_PUSH SW1
U 1 1 60B5EC4B
P 3450 3000
F 0 "SW1" H 3600 3110 50  0000 C CNN
F 1 "SENSOR" H 3450 2920 50  0000 C CNN
F 2 "Connect:bornier2" H 3450 3000 50  0001 C CNN
F 3 "" H 3450 3000 50  0000 C CNN
	1    3450 3000
	0    1    1    0   
$EndComp
$Comp
L GND #PWR6
U 1 1 60B5F000
P 3450 3400
F 0 "#PWR6" H 3450 3150 50  0001 C CNN
F 1 "GND" H 3450 3250 50  0000 C CNN
F 2 "" H 3450 3400 50  0000 C CNN
F 3 "" H 3450 3400 50  0000 C CNN
	1    3450 3400
	1    0    0    -1  
$EndComp
$Comp
L Q_NPN_EBC Q1
U 1 1 60B5F035
P 3800 2600
F 0 "Q1" H 4100 2650 50  0000 R CNN
F 1 "PN2222" H 4300 2550 50  0000 R CNN
F 2 "TO_SOT_Packages_THT:TO-92_Inline_Wide" H 4000 2700 50  0001 C CNN
F 3 "" H 3800 2600 50  0000 C CNN
	1    3800 2600
	1    0    0    -1  
$EndComp
$Comp
L GND #PWR9
U 1 1 60B5F0EC
P 3900 2900
F 0 "#PWR9" H 3900 2650 50  0001 C CNN
F 1 "GND" H 3900 2750 50  0000 C CNN
F 2 "" H 3900 2900 50  0000 C CNN
F 3 "" H 3900 2900 50  0000 C CNN
	1    3900 2900
	1    0    0    -1  
$EndComp
$Comp
L R R1
U 1 1 60B5F144
P 3450 2350
F 0 "R1" V 3530 2350 50  0000 C CNN
F 1 "1K" V 3450 2350 50  0000 C CNN
F 2 "Resistors_ThroughHole:Resistor_Horizontal_RM10mm" V 3380 2350 50  0001 C CNN
F 3 "" H 3450 2350 50  0000 C CNN
	1    3450 2350
	1    0    0    -1  
$EndComp
$Comp
L RELAY_SPDT K1
U 1 1 60B5F21A
P 4600 1950
F 0 "K1" H 4600 2050 50  0000 C CNN
F 1 "SRD-5VDC-SL-C" H 4600 1350 50  0000 C CNN
F 2 "myRelays:SRD-5VDC-SL-C" H 4600 1950 50  0001 C CNN
F 3 "" H 4600 1950 50  0000 C CNN
	1    4600 1950
	1    0    0    -1  
$EndComp
$Comp
L D D1
U 1 1 60B5F27C
P 3900 2050
F 0 "D1" H 3900 2150 50  0000 C CNN
F 1 "1N4148" H 3900 1950 50  0000 C CNN
F 2 "Diodes_ThroughHole:Diode_DO-35_SOD27_Horizontal_RM10" H 3900 2050 50  0001 C CNN
F 3 "" H 3900 2050 50  0000 C CNN
	1    3900 2050
	0    1    1    0   
$EndComp
$Comp
L +5V #PWR8
U 1 1 60B5F318
P 3900 1700
F 0 "#PWR8" H 3900 1550 50  0001 C CNN
F 1 "+5V" H 3900 1840 50  0000 C CNN
F 2 "" H 3900 1700 50  0000 C CNN
F 3 "" H 3900 1700 50  0000 C CNN
	1    3900 1700
	1    0    0    -1  
$EndComp
$Comp
L CONN_01X02 P1
U 1 1 60B5F344
P 5700 2050
F 0 "P1" H 5700 2200 50  0000 C CNN
F 1 "OUT" V 5800 2050 50  0000 C CNN
F 2 "myConnectors:Bornier2-7.62" H 5700 2050 50  0001 C CNN
F 3 "" H 5700 2050 50  0000 C CNN
	1    5700 2050
	1    0    0    1   
$EndComp
$Comp
L CONN_01X02 P2
U 1 1 60B5F47A
P 2400 2050
F 0 "P2" H 2400 2200 50  0000 C CNN
F 1 "5V" V 2500 2050 50  0000 C CNN
F 2 "Connect:bornier2" H 2400 2050 50  0001 C CNN
F 3 "" H 2400 2050 50  0000 C CNN
	1    2400 2050
	-1   0    0    1   
$EndComp
$Comp
L +5V #PWR5
U 1 1 60B5F17E
P 3450 2100
F 0 "#PWR5" H 3450 1950 50  0001 C CNN
F 1 "+5V" H 3450 2240 50  0000 C CNN
F 2 "" H 3450 2100 50  0000 C CNN
F 3 "" H 3450 2100 50  0000 C CNN
	1    3450 2100
	1    0    0    -1  
$EndComp
$Comp
L +5V #PWR1
U 1 1 60B5F52F
P 2700 1900
F 0 "#PWR1" H 2700 1750 50  0001 C CNN
F 1 "+5V" H 2700 2040 50  0000 C CNN
F 2 "" H 2700 1900 50  0000 C CNN
F 3 "" H 2700 1900 50  0000 C CNN
	1    2700 1900
	1    0    0    -1  
$EndComp
$Comp
L GND #PWR2
U 1 1 60B5F57D
P 2700 2200
F 0 "#PWR2" H 2700 1950 50  0001 C CNN
F 1 "GND" H 2700 2050 50  0000 C CNN
F 2 "" H 2700 2200 50  0000 C CNN
F 3 "" H 2700 2200 50  0000 C CNN
	1    2700 2200
	1    0    0    -1  
$EndComp
$Comp
L Led_Small D2
U 1 1 60B5F5DD
P 2900 2800
F 0 "D2" H 2850 2925 50  0000 L CNN
F 1 "GREEN" H 2800 2700 50  0000 L CNN
F 2 "LEDs:LED-5MM" V 2900 2800 50  0001 C CNN
F 3 "" V 2900 2800 50  0000 C CNN
	1    2900 2800
	0    -1   -1   0   
$EndComp
$Comp
L +5V #PWR3
U 1 1 60B5F624
P 2900 2200
F 0 "#PWR3" H 2900 2050 50  0001 C CNN
F 1 "+5V" H 2900 2340 50  0000 C CNN
F 2 "" H 2900 2200 50  0000 C CNN
F 3 "" H 2900 2200 50  0000 C CNN
	1    2900 2200
	1    0    0    -1  
$EndComp
$Comp
L GND #PWR4
U 1 1 60B5F647
P 2900 3000
F 0 "#PWR4" H 2900 2750 50  0001 C CNN
F 1 "GND" H 2900 2850 50  0000 C CNN
F 2 "" H 2900 3000 50  0000 C CNN
F 3 "" H 2900 3000 50  0000 C CNN
	1    2900 3000
	1    0    0    -1  
$EndComp
$Comp
L R R2
U 1 1 60B5F718
P 2900 2450
F 0 "R2" V 2980 2450 50  0000 C CNN
F 1 "1K" V 2900 2450 50  0000 C CNN
F 2 "Resistors_ThroughHole:Resistor_Horizontal_RM10mm" V 2830 2450 50  0001 C CNN
F 3 "" H 2900 2450 50  0000 C CNN
	1    2900 2450
	1    0    0    -1  
$EndComp
$Comp
L R R3
U 1 1 60B5F7C5
P 3650 1750
F 0 "R3" V 3730 1750 50  0000 C CNN
F 1 "1K" V 3650 1750 50  0000 C CNN
F 2 "Resistors_ThroughHole:Resistor_Horizontal_RM10mm" V 3580 1750 50  0001 C CNN
F 3 "" H 3650 1750 50  0000 C CNN
	1    3650 1750
	1    0    0    -1  
$EndComp
$Comp
L Led_Small D3
U 1 1 60B5F82F
P 3650 2100
F 0 "D3" H 3500 2150 50  0000 L CNN
F 1 "RED" H 3700 2150 50  0000 L CNN
F 2 "LEDs:LED-5MM" V 3650 2100 50  0001 C CNN
F 3 "" V 3650 2100 50  0000 C CNN
	1    3650 2100
	0    -1   -1   0   
$EndComp
$Comp
L +5V #PWR7
U 1 1 60B5F8F1
P 3650 1500
F 0 "#PWR7" H 3650 1350 50  0001 C CNN
F 1 "+5V" H 3650 1640 50  0000 C CNN
F 2 "" H 3650 1500 50  0000 C CNN
F 3 "" H 3650 1500 50  0000 C CNN
	1    3650 1500
	1    0    0    -1  
$EndComp
$Comp
L CONN_01X02 P3
U 1 1 60B5FDC1
P 5700 2450
F 0 "P3" H 5700 2600 50  0000 C CNN
F 1 "230V" V 5800 2450 50  0000 C CNN
F 2 "myConnectors:Bornier2-7.62" H 5700 2450 50  0001 C CNN
F 3 "" H 5700 2450 50  0000 C CNN
	1    5700 2450
	1    0    0    1   
$EndComp
$Comp
L VR VR1
U 1 1 60B5FF22
P 5250 2050
F 0 "VR1" V 5310 2004 50  0000 C TNN
F 1 "VR" V 5250 2050 50  0000 C CNN
F 2 "Varistors:RV_Disc_D12_W3.9_P7.5" H 5250 2050 50  0001 C CNN
F 3 "" H 5250 2050 50  0000 C CNN
	1    5250 2050
	1    0    0    -1  
$EndComp
$Comp
L SW_PUSH SW3
U 1 1 60B74BE7
P 2700 5200
F 0 "SW3" H 2850 5310 50  0000 C CNN
F 1 "LOW SENSOR" H 2700 5120 50  0000 C CNN
F 2 "Connect:bornier2" H 2700 5200 50  0001 C CNN
F 3 "" H 2700 5200 50  0000 C CNN
	1    2700 5200
	0    1    1    0   
$EndComp
$Comp
L float-relay K2
U 1 1 60B75014
P 3700 4600
F 0 "K2" H 3975 3975 60  0000 C CNN
F 1 "FLOAT-RELAY" V 4100 3975 60  0000 C CNN
F 2 "" H 3700 4600 60  0000 C CNN
F 3 "" H 3700 4600 60  0000 C CNN
	1    3700 4600
	1    0    0    -1  
$EndComp
$Comp
L Finder-22.32.0-RESCUE-rain-tank K3
U 1 1 60B75065
P 4350 4600
F 0 "K3" H 4625 3975 60  0000 C CNN
F 1 "FINDER-22.32.0" V 4750 3975 60  0000 C CNN
F 2 "" H 4350 4600 60  0000 C CNN
F 3 "" H 4350 4600 60  0000 C CNN
	1    4350 4600
	1    0    0    -1  
$EndComp
$Comp
L MEANWELL-HDR-15-5 U1
U 1 1 60B751F3
P 3050 4600
F 0 "U1" H 3325 3975 60  0000 C CNN
F 1 "MEANWELL-HDR-15-5" V 3450 3975 60  0000 C CNN
F 2 "" H 3050 4600 60  0000 C CNN
F 3 "" H 3050 4600 60  0000 C CNN
	1    3050 4600
	1    0    0    -1  
$EndComp
$Comp
L 230V-PLUG P5
U 1 1 60B76704
P 5200 4600
F 0 "P5" H 5675 4300 60  0000 C CNN
F 1 "230V-PLUG" V 5850 3975 60  0000 C CNN
F 2 "" H 5200 4600 60  0000 C CNN
F 3 "" H 5200 4600 60  0000 C CNN
	1    5200 4600
	1    0    0    -1  
$EndComp
$Comp
L CONN_01X03 P4
U 1 1 60B768F7
P 2550 6100
F 0 "P4" H 2550 6300 50  0000 C CNN
F 1 "230V" V 2650 6100 50  0000 C CNN
F 2 "" H 2550 6100 50  0000 C CNN
F 3 "" H 2550 6100 50  0000 C CNN
	1    2550 6100
	-1   0    0    1   
$EndComp
$Comp
L SW_PUSH SW2
U 1 1 60B76D27
P 2300 5200
F 0 "SW2" H 2450 5310 50  0000 C CNN
F 1 "HIGH SENSOR" H 2300 5120 50  0000 C CNN
F 2 "Connect:bornier2" H 2300 5200 50  0001 C CNN
F 3 "" H 2300 5200 50  0000 C CNN
	1    2300 5200
	0    1    1    0   
$EndComp
Wire Wire Line
	3450 2500 3450 2700
Wire Wire Line
	3450 3400 3450 3300
Wire Wire Line
	3900 2800 3900 2900
Wire Wire Line
	3650 2300 4200 2300
Wire Wire Line
	3450 2100 3450 2200
Connection ~ 3450 2600
Wire Wire Line
	3900 2200 3900 2400
Connection ~ 3900 2300
Wire Wire Line
	4200 2200 4050 2200
Wire Wire Line
	4050 2200 4050 1800
Wire Wire Line
	4050 1800 3900 1800
Wire Wire Line
	3900 1700 3900 1900
Connection ~ 3900 1800
Wire Wire Line
	5500 2000 5400 2000
Wire Wire Line
	5400 2000 5400 1700
Wire Wire Line
	5400 1700 4100 1700
Wire Wire Line
	4100 1700 4100 2000
Wire Wire Line
	4100 2000 4200 2000
Wire Wire Line
	2700 1900 2700 2000
Wire Wire Line
	2700 2000 2600 2000
Wire Wire Line
	2700 2200 2700 2100
Wire Wire Line
	2700 2100 2600 2100
Wire Wire Line
	2900 2700 2900 2600
Wire Wire Line
	2900 2900 2900 3000
Wire Wire Line
	2900 2300 2900 2200
Wire Wire Line
	3650 1900 3650 2000
Wire Wire Line
	3650 1500 3650 1600
Wire Wire Line
	3650 2200 3650 2300
Wire Wire Line
	5000 2100 5100 2100
Wire Wire Line
	5100 2100 5100 2500
Wire Wire Line
	5100 2500 5500 2500
Wire Wire Line
	5500 2100 5400 2100
Wire Wire Line
	5400 2100 5400 2400
Wire Wire Line
	5250 2400 5500 2400
Wire Wire Line
	5250 1800 5250 1700
Connection ~ 5250 1700
Wire Wire Line
	5250 2300 5250 2400
Connection ~ 5400 2400
Wire Wire Line
	3450 2600 3600 2600
Wire Wire Line
	2750 6100 4900 6100
Wire Wire Line
	3250 6100 3250 5850
Wire Wire Line
	2750 6200 4950 6200
Wire Wire Line
	3350 6200 3350 5850
Wire Wire Line
	3700 6100 3700 5850
Connection ~ 3250 6100
Wire Wire Line
	3800 6200 3800 5850
Connection ~ 3350 6200
Wire Wire Line
	4000 5850 4000 5950
Wire Wire Line
	4000 5950 4200 5950
Wire Wire Line
	4200 5950 4200 4500
Wire Wire Line
	4200 4500 4350 4500
Wire Wire Line
	4350 4500 4350 4600
Wire Wire Line
	3900 5850 3900 6000
Wire Wire Line
	3900 6000 4350 6000
Wire Wire Line
	4350 6000 4350 5850
Wire Wire Line
	5500 5850 5500 6000
Wire Wire Line
	5500 6000 4550 6000
Wire Wire Line
	4550 6000 4550 5850
Wire Wire Line
	4650 5850 4650 5950
Wire Wire Line
	4650 5950 5400 5950
Wire Wire Line
	5400 5950 5400 5850
Wire Wire Line
	2750 6000 3100 6000
Wire Wire Line
	3100 6000 3100 4150
Wire Wire Line
	3100 4150 5450 4150
Wire Wire Line
	5450 4150 5450 4600
Wire Wire Line
	3350 4600 3350 4300
Wire Wire Line
	3350 4300 3900 4300
Wire Wire Line
	3900 4300 3900 4600
Wire Wire Line
	4000 4250 4000 4600
Wire Wire Line
	3250 4600 3250 4300
Wire Wire Line
	3250 4300 2900 4300
Wire Wire Line
	2900 4300 2900 5600
Wire Wire Line
	2900 5600 2700 5600
Wire Wire Line
	2700 5600 2700 5500
Wire Wire Line
	2700 4900 2700 4250
Wire Wire Line
	2700 4250 4000 4250
Wire Wire Line
	2300 4900 2300 4400
Wire Wire Line
	2300 4400 3800 4400
Wire Wire Line
	3800 4400 3800 4600
Wire Wire Line
	3700 4600 3700 4450
Wire Wire Line
	3700 4450 2500 4450
Wire Wire Line
	2500 4450 2500 5600
Wire Wire Line
	2500 5600 2300 5600
Wire Wire Line
	2300 5600 2300 5500
Wire Wire Line
	4900 6100 4900 4500
Wire Wire Line
	4900 4500 4650 4500
Wire Wire Line
	4650 4500 4650 4600
Connection ~ 3700 6100
Wire Wire Line
	4950 6200 4950 4450
Wire Wire Line
	4950 4450 4550 4450
Wire Wire Line
	4550 4450 4550 4600
Connection ~ 3800 6200
$Comp
L float-relay K2
U 1 1 60BA069A
P 3700 7500
F 0 "K2" H 3975 6875 60  0000 C CNN
F 1 "FLOAT-RELAY" V 4100 6875 60  0000 C CNN
F 2 "" H 3700 7500 60  0000 C CNN
F 3 "" H 3700 7500 60  0000 C CNN
	1    3700 7500
	1    0    0    -1  
$EndComp
$Comp
L Finder-22.32.0-RESCUE-rain-tank K3
U 1 1 60BA06A0
P 4350 7500
F 0 "K3" H 4625 6875 60  0000 C CNN
F 1 "FINDER-22.32.0" V 4750 6875 60  0000 C CNN
F 2 "" H 4350 7500 60  0000 C CNN
F 3 "" H 4350 7500 60  0000 C CNN
	1    4350 7500
	1    0    0    -1  
$EndComp
$Comp
L MEANWELL-HDR-15-5 U1
U 1 1 60BA06A6
P 3050 7500
F 0 "U1" H 3325 6875 60  0000 C CNN
F 1 "MEANWELL-HDR-15-5" V 3450 6875 60  0000 C CNN
F 2 "" H 3050 7500 60  0000 C CNN
F 3 "" H 3050 7500 60  0000 C CNN
	1    3050 7500
	1    0    0    -1  
$EndComp
$Comp
L 230V-PLUG P5
U 1 1 60BA06AC
P 5200 7500
F 0 "P5" H 5675 7200 60  0000 C CNN
F 1 "230V-PLUG" V 5850 6875 60  0000 C CNN
F 2 "" H 5200 7500 60  0000 C CNN
F 3 "" H 5200 7500 60  0000 C CNN
	1    5200 7500
	1    0    0    -1  
$EndComp
$Comp
L CONN_01X03 P4
U 1 1 60BA06B2
P 2550 9000
F 0 "P4" H 2550 9200 50  0000 C CNN
F 1 "230V" V 2650 9000 50  0000 C CNN
F 2 "" H 2550 9000 50  0000 C CNN
F 3 "" H 2550 9000 50  0000 C CNN
	1    2550 9000
	-1   0    0    1   
$EndComp
$Comp
L SW_PUSH SW2
U 1 1 60BA06B8
P 2300 8100
F 0 "SW2" H 2450 8210 50  0000 C CNN
F 1 "HIGH SENSOR" H 2300 8020 50  0000 C CNN
F 2 "Connect:bornier2" H 2300 8100 50  0001 C CNN
F 3 "" H 2300 8100 50  0000 C CNN
	1    2300 8100
	0    1    1    0   
$EndComp
Wire Wire Line
	2750 9000 4900 9000
Wire Wire Line
	3250 9000 3250 8750
Wire Wire Line
	2750 9100 4950 9100
Wire Wire Line
	3350 9100 3350 8750
Wire Wire Line
	3700 9000 3700 8750
Connection ~ 3250 9000
Wire Wire Line
	3800 9100 3800 8750
Connection ~ 3350 9100
Wire Wire Line
	4000 8750 4000 8850
Wire Wire Line
	4000 8850 4200 8850
Wire Wire Line
	4200 8850 4200 7400
Wire Wire Line
	4200 7400 4350 7400
Wire Wire Line
	4350 7400 4350 7500
Wire Wire Line
	3900 8750 3900 8900
Wire Wire Line
	3900 8900 4350 8900
Wire Wire Line
	4350 8900 4350 8750
Wire Wire Line
	5500 8750 5500 8900
Wire Wire Line
	5500 8900 4550 8900
Wire Wire Line
	4550 8900 4550 8750
Wire Wire Line
	4650 8750 4650 8850
Wire Wire Line
	4650 8850 5400 8850
Wire Wire Line
	5400 8850 5400 8750
Wire Wire Line
	2750 8900 3100 8900
Wire Wire Line
	3100 8900 3100 7050
Wire Wire Line
	3100 7050 5450 7050
Wire Wire Line
	5450 7050 5450 7500
Wire Wire Line
	3350 7500 3350 7200
Wire Wire Line
	3350 7200 3900 7200
Wire Wire Line
	3900 7200 3900 7500
Wire Wire Line
	4000 7150 4000 7500
Wire Wire Line
	3250 7150 3250 7500
Wire Wire Line
	2300 7800 2300 7300
Wire Wire Line
	2300 7300 3800 7300
Wire Wire Line
	3800 7300 3800 7500
Wire Wire Line
	3700 7500 3700 7350
Wire Wire Line
	3700 7350 2500 7350
Wire Wire Line
	2500 7350 2500 8500
Wire Wire Line
	2500 8500 2300 8500
Wire Wire Line
	2300 8500 2300 8400
Wire Wire Line
	4900 9000 4900 7400
Wire Wire Line
	4900 7400 4650 7400
Wire Wire Line
	4650 7400 4650 7500
Connection ~ 3700 9000
Wire Wire Line
	4950 9100 4950 7350
Wire Wire Line
	4950 7350 4550 7350
Wire Wire Line
	4550 7350 4550 7500
Connection ~ 3800 9100
Wire Wire Line
	3250 7150 4000 7150
$EndSCHEMATC
