EESchema Schematic File Version 4
EELAYER 30 0
EELAYER END
$Descr A4 11693 8268
encoding utf-8
Sheet 1 2
Title ""
Date ""
Rev ""
Comp ""
Comment1 ""
Comment2 ""
Comment3 ""
Comment4 ""
$EndDescr
$Comp
L Motor:Motor_DC M1
U 1 1 6252BC2E
P 7000 4050
F 0 "M1" H 7158 4046 50  0000 L CNN
F 1 "PUMP" H 7158 3955 50  0000 L CNN
F 2 "" H 7000 3960 50  0001 C CNN
F 3 "~" H 7000 3960 50  0001 C CNN
	1    7000 4050
	1    0    0    -1  
$EndComp
Wire Wire Line
	7000 3650 7000 3750
$Comp
L Transistor_FET:IRF540N Q1
U 1 1 6252C670
P 6900 4750
F 0 "Q1" H 7104 4796 50  0000 L CNN
F 1 "IRF520" H 7104 4705 50  0000 L CNN
F 2 "Package_TO_SOT_THT:TO-220-3_Vertical" H 7150 4675 50  0001 L CIN
F 3 "http://www.irf.com/product-info/datasheets/data/irf540n.pdf" H 6900 4750 50  0001 L CNN
	1    6900 4750
	1    0    0    -1  
$EndComp
Wire Wire Line
	7000 4350 7000 4450
$Comp
L Device:D D1
U 1 1 6252D27A
P 6700 4100
F 0 "D1" V 6650 3900 50  0000 L CNN
F 1 "1N4148" V 6550 3950 50  0000 L CNN
F 2 "" H 6700 4100 50  0001 C CNN
F 3 "~" H 6700 4100 50  0001 C CNN
	1    6700 4100
	0    1    1    0   
$EndComp
Wire Wire Line
	6700 3950 6700 3750
Wire Wire Line
	6700 3750 7000 3750
Connection ~ 7000 3750
Wire Wire Line
	7000 3750 7000 3850
Wire Wire Line
	6700 4250 6700 4450
Wire Wire Line
	6700 4450 7000 4450
Connection ~ 7000 4450
Wire Wire Line
	7000 4450 7000 4550
$Comp
L power:GND #PWR0102
U 1 1 6252DA61
P 7000 5050
F 0 "#PWR0102" H 7000 4800 50  0001 C CNN
F 1 "GND" H 7005 4877 50  0000 C CNN
F 2 "" H 7000 5050 50  0001 C CNN
F 3 "" H 7000 5050 50  0001 C CNN
	1    7000 5050
	1    0    0    -1  
$EndComp
Wire Wire Line
	7000 5050 7000 4950
$Comp
L my_switches:SW_SPST SW2
U 1 1 6252E871
P 4100 4100
F 0 "SW2" H 4100 4355 50  0000 C CNN
F 1 "SW_SPST" H 4100 4264 50  0000 C CNN
F 2 "" H 4100 4100 50  0001 C CNN
F 3 "" H 4100 4100 50  0001 C CNN
	1    4100 4100
	1    0    0    -1  
$EndComp
$Comp
L my_switches:SW_SPST SW3
U 1 1 6252E615
P 4100 3350
F 0 "SW3" H 4100 3250 50  0000 C CNN
F 1 "SW_SPST" H 4100 3150 50  0000 C CNN
F 2 "" H 4100 3350 50  0001 C CNN
F 3 "" H 4100 3350 50  0001 C CNN
	1    4100 3350
	1    0    0    -1  
$EndComp
Wire Wire Line
	3800 3350 3900 3350
Wire Wire Line
	3900 4100 3800 4100
$Comp
L 4xxx:4011 U1
U 1 1 62542B25
P 5500 3450
F 0 "U1" H 5450 3650 50  0000 C CNN
F 1 "4011" H 5500 3450 50  0000 C CNN
F 2 "" H 5500 3450 50  0001 C CNN
F 3 "http://www.intersil.com/content/dam/Intersil/documents/cd40/cd4011bms-12bms-23bms.pdf" H 5500 3450 50  0001 C CNN
	1    5500 3450
	1    0    0    -1  
$EndComp
$Comp
L 4xxx:4011 U1
U 2 1 625984EE
P 5500 4000
F 0 "U1" H 5450 3800 50  0000 C CNN
F 1 "4011" H 5500 4000 50  0000 C CNN
F 2 "" H 5500 4000 50  0001 C CNN
F 3 "http://www.intersil.com/content/dam/Intersil/documents/cd40/cd4011bms-12bms-23bms.pdf" H 5500 4000 50  0001 C CNN
	2    5500 4000
	1    0    0    -1  
$EndComp
Wire Wire Line
	5800 3450 5900 3450
Wire Wire Line
	5900 3450 5900 3700
Wire Wire Line
	5900 3700 5100 3700
Wire Wire Line
	5100 3700 5100 3900
Wire Wire Line
	5100 3900 5200 3900
Wire Wire Line
	5800 4000 5900 4000
Wire Wire Line
	5900 4000 5900 3750
Wire Wire Line
	5900 3750 5050 3750
Wire Wire Line
	5050 3750 5050 3550
Wire Wire Line
	5050 3550 5200 3550
$Comp
L my_switches:SW_SPST SW1
U 1 1 6252DD79
P 4100 4850
F 0 "SW1" H 4100 4625 50  0000 C CNN
F 1 "SW_SPST" H 4100 4716 50  0000 C CNN
F 2 "" H 4100 4850 50  0001 C CNN
F 3 "" H 4100 4850 50  0001 C CNN
	1    4100 4850
	1    0    0    -1  
$EndComp
Wire Wire Line
	3800 4100 3800 4200
Wire Wire Line
	4300 4100 4400 4100
Wire Wire Line
	3900 4850 3800 4850
$Comp
L 4xxx:4011 U1
U 3 1 62637084
P 5500 4750
F 0 "U1" H 5450 4550 50  0000 C CNN
F 1 "4011" H 5500 4750 50  0000 C CNN
F 2 "" H 5500 4750 50  0001 C CNN
F 3 "http://www.intersil.com/content/dam/Intersil/documents/cd40/cd4011bms-12bms-23bms.pdf" H 5500 4750 50  0001 C CNN
	3    5500 4750
	1    0    0    -1  
$EndComp
Wire Wire Line
	4300 4850 4400 4850
Wire Wire Line
	5900 4000 5900 4300
Wire Wire Line
	5900 4300 5100 4300
Wire Wire Line
	5100 4300 5100 4650
Wire Wire Line
	5100 4650 5200 4650
Connection ~ 5900 4000
$Comp
L Device:R R3
U 1 1 62642DF4
P 4750 3600
F 0 "R3" H 4680 3554 50  0000 R CNN
F 1 "100K" H 4680 3645 50  0000 R CNN
F 2 "" V 4680 3600 50  0001 C CNN
F 3 "~" H 4750 3600 50  0001 C CNN
	1    4750 3600
	-1   0    0    1   
$EndComp
$Comp
L power:GND #PWR0101
U 1 1 6265BA5D
P 4750 3850
F 0 "#PWR0101" H 4750 3600 50  0001 C CNN
F 1 "GND" H 4755 3677 50  0000 C CNN
F 2 "" H 4750 3850 50  0001 C CNN
F 3 "" H 4750 3850 50  0001 C CNN
	1    4750 3850
	1    0    0    -1  
$EndComp
Wire Wire Line
	4750 3750 4750 3850
$Comp
L power:+12V #PWR0103
U 1 1 6265DFBB
P 7000 3650
F 0 "#PWR0103" H 7000 3500 50  0001 C CNN
F 1 "+12V" H 7015 3823 50  0000 C CNN
F 2 "" H 7000 3650 50  0001 C CNN
F 3 "" H 7000 3650 50  0001 C CNN
	1    7000 3650
	1    0    0    -1  
$EndComp
$Comp
L power:+12V #PWR0104
U 1 1 62663C58
P 3800 3250
F 0 "#PWR0104" H 3800 3100 50  0001 C CNN
F 1 "+12V" H 3815 3423 50  0000 C CNN
F 2 "" H 3800 3250 50  0001 C CNN
F 3 "" H 3800 3250 50  0001 C CNN
	1    3800 3250
	1    0    0    -1  
$EndComp
Wire Wire Line
	3800 3250 3800 3350
Wire Wire Line
	4300 3350 4750 3350
Wire Wire Line
	4750 3450 4750 3350
Connection ~ 4750 3350
Wire Wire Line
	4750 3350 5200 3350
$Comp
L Device:R R1
U 1 1 6266CB65
P 4400 3850
F 0 "R1" H 4330 3804 50  0000 R CNN
F 1 "100K" H 4330 3895 50  0000 R CNN
F 2 "" V 4330 3850 50  0001 C CNN
F 3 "~" H 4400 3850 50  0001 C CNN
	1    4400 3850
	-1   0    0    1   
$EndComp
Wire Wire Line
	4400 4000 4400 4100
Connection ~ 4400 4100
$Comp
L power:+12V #PWR0105
U 1 1 6267987D
P 4400 3600
F 0 "#PWR0105" H 4400 3450 50  0001 C CNN
F 1 "+12V" H 4415 3773 50  0000 C CNN
F 2 "" H 4400 3600 50  0001 C CNN
F 3 "" H 4400 3600 50  0001 C CNN
	1    4400 3600
	1    0    0    -1  
$EndComp
Wire Wire Line
	4400 3600 4400 3700
Wire Wire Line
	4400 4100 5200 4100
$Comp
L power:GND #PWR0106
U 1 1 6267ACEC
P 3800 4200
F 0 "#PWR0106" H 3800 3950 50  0001 C CNN
F 1 "GND" H 3805 4027 50  0000 C CNN
F 2 "" H 3800 4200 50  0001 C CNN
F 3 "" H 3800 4200 50  0001 C CNN
	1    3800 4200
	1    0    0    -1  
$EndComp
$Comp
L power:GND #PWR0107
U 1 1 6268170E
P 3800 4950
F 0 "#PWR0107" H 3800 4700 50  0001 C CNN
F 1 "GND" H 3805 4777 50  0000 C CNN
F 2 "" H 3800 4950 50  0001 C CNN
F 3 "" H 3800 4950 50  0001 C CNN
	1    3800 4950
	1    0    0    -1  
$EndComp
Wire Wire Line
	3800 4850 3800 4950
Wire Wire Line
	6600 4750 6700 4750
$Comp
L 4xxx:4011 U1
U 4 1 626980E6
P 6300 4750
F 0 "U1" H 6250 4550 50  0000 C CNN
F 1 "4011" H 6300 4750 50  0000 C CNN
F 2 "" H 6300 4750 50  0001 C CNN
F 3 "http://www.intersil.com/content/dam/Intersil/documents/cd40/cd4011bms-12bms-23bms.pdf" H 6300 4750 50  0001 C CNN
	4    6300 4750
	1    0    0    -1  
$EndComp
Wire Wire Line
	6000 4650 5900 4650
Wire Wire Line
	5900 4650 5900 4750
Wire Wire Line
	5900 4850 6000 4850
Wire Wire Line
	5900 4750 5800 4750
Connection ~ 5900 4750
Wire Wire Line
	5900 4750 5900 4850
$Comp
L Device:R R2
U 1 1 626BBCD3
P 4400 4600
F 0 "R2" H 4330 4554 50  0000 R CNN
F 1 "100K" H 4330 4645 50  0000 R CNN
F 2 "" V 4330 4600 50  0001 C CNN
F 3 "~" H 4400 4600 50  0001 C CNN
	1    4400 4600
	-1   0    0    1   
$EndComp
Wire Wire Line
	4400 4750 4400 4850
Connection ~ 4400 4850
Wire Wire Line
	4400 4850 5200 4850
$Comp
L power:+12V #PWR0108
U 1 1 626BD2A2
P 4400 4350
F 0 "#PWR0108" H 4400 4200 50  0001 C CNN
F 1 "+12V" H 4415 4523 50  0000 C CNN
F 2 "" H 4400 4350 50  0001 C CNN
F 3 "" H 4400 4350 50  0001 C CNN
	1    4400 4350
	1    0    0    -1  
$EndComp
Wire Wire Line
	4400 4350 4400 4450
$Comp
L Connector_Generic:Conn_01x02 J?
U 1 1 6263DD0B
P 4400 2600
F 0 "J?" H 4480 2592 50  0000 L CNN
F 1 "230V" H 4480 2501 50  0000 L CNN
F 2 "Connectors_Terminal_Blocks:TerminalBlock_bornier-2_P5.08mm" H 4400 2600 50  0001 C CNN
F 3 "~" H 4400 2600 50  0001 C CNN
	1    4400 2600
	-1   0    0    -1  
$EndComp
$Comp
L my_psu:IRM-XX-XX U?
U 1 1 6263DD31
P 5350 2650
F 0 "U?" H 5350 3037 60  0000 C CNN
F 1 "IRM-XX-XX" H 5350 2931 60  0000 C CNN
F 2 "myPowerSupplies:HLK-PM01" H 5350 2650 60  0001 C CNN
F 3 "" H 5350 2650 60  0000 C CNN
	1    5350 2650
	1    0    0    -1  
$EndComp
Wire Wire Line
	6100 2450 6100 2550
Wire Wire Line
	6100 2550 6000 2550
$Comp
L power:GND #PWR?
U 1 1 6263DD43
P 6100 2850
F 0 "#PWR?" H 6100 2600 50  0001 C CNN
F 1 "GND" H 6105 2677 50  0000 C CNN
F 2 "" H 6100 2850 50  0001 C CNN
F 3 "" H 6100 2850 50  0001 C CNN
	1    6100 2850
	-1   0    0    -1  
$EndComp
Wire Wire Line
	6000 2750 6100 2750
Wire Wire Line
	6100 2750 6100 2850
$Comp
L power:VDD #PWR?
U 1 1 6263DD51
P 6300 2450
F 0 "#PWR?" H 6300 2300 50  0001 C CNN
F 1 "VDD" H 6317 2623 50  0000 C CNN
F 2 "" H 6300 2450 50  0001 C CNN
F 3 "" H 6300 2450 50  0001 C CNN
	1    6300 2450
	-1   0    0    -1  
$EndComp
Wire Wire Line
	6300 2450 6300 2550
Wire Wire Line
	6300 2550 6100 2550
Connection ~ 6100 2550
$Comp
L power:VSS #PWR?
U 1 1 6263DD5A
P 6300 2850
F 0 "#PWR?" H 6300 2700 50  0001 C CNN
F 1 "VSS" H 6318 3023 50  0000 C CNN
F 2 "" H 6300 2850 50  0001 C CNN
F 3 "" H 6300 2850 50  0001 C CNN
	1    6300 2850
	1    0    0    1   
$EndComp
Wire Wire Line
	6300 2850 6300 2750
Wire Wire Line
	6300 2750 6100 2750
Connection ~ 6100 2750
Wire Wire Line
	4700 2600 4600 2600
Wire Wire Line
	4700 2700 4600 2700
$Comp
L power:+12V #PWR?
U 1 1 6265C58F
P 6100 2450
F 0 "#PWR?" H 6100 2300 50  0001 C CNN
F 1 "+12V" H 6115 2623 50  0000 C CNN
F 2 "" H 6100 2450 50  0001 C CNN
F 3 "" H 6100 2450 50  0001 C CNN
	1    6100 2450
	-1   0    0    -1  
$EndComp
Text Notes 5000 3300 0    50   ~ 0
R
Text Notes 5000 4050 0    50   ~ 0
S
Text Notes 4950 4800 0    50   ~ 0
ENABLE
$EndSCHEMATC
